<?xml version="1.0" encoding="utf-8"?>
<!-- Generator: Adobe Illustrator 23.0.3, SVG Export Plug-In . SVG Version: 6.00 Build 0)  -->
<svg version="1.1" id="Layer_1" xmlns="http://www.w3.org/2000/svg" xmlns:xlink="http://www.w3.org/1999/xlink" x="0px" y="0px"
	 viewBox="0 0 1920 1080" style="enable-background:new 0 0 1920 1080;" xml:space="preserve">
<path d="M-2661.8-1475l-2.1-2.1L-958-3183l2.1,2.1L-2661.8-1475z M-943.6-3167.5l-2.1-2.1l-1705.9,1705.9l2.1,2.1L-943.6-3167.5z
	 M-930.2-3155.2l-2.1-2.1l-1705.9,1705.9l2.1,2.1L-930.2-3155.2z M-918-3141.9l-2.1-2.1L-2626-1438l2.1,2.1L-918-3141.9z
	 M-904.6-3129.6l-2.1-2.1l-1705.9,1705.9l2.1,2.1L-904.6-3129.6z M-892.3-3116.2l-2.1-2.1l-1705.9,1705.9l2.1,2.1L-892.3-3116.2z
	 M-878.9-3103.9l-2.1-2.1L-2587-1400.1l2.1,2.1L-878.9-3103.9z M-866.7-3090.6l-2.1-2.1l-1705.9,1705.9l2.1,2.1L-866.7-3090.6z
	 M-853.3-3078.3l-2.1-2.1l-1705.9,1705.9l2.1,2.1L-853.3-3078.3z M-841-3064.9l-2.1-2.1l-1705.9,1705.9l2.1,2.1L-841-3064.9z
	 M-827.6-3052.6l-2.1-2.1l-1705.9,1705.9l2.1,2.1L-827.6-3052.6z M-815.3-3039.2l-2.1-2.1l-1705.9,1705.9l2.1,2.1L-815.3-3039.2z
	 M-802-3027l-2.1-2.1L-2510-1323.1l2.1,2.1L-802-3027z M-789.7-3013.6l-2.1-2.1l-1705.9,1705.9l2.1,2.1L-789.7-3013.6z
	 M-776.3-3001.3l-2.1-2.1l-1705.9,1705.9l2.1,2.1L-776.3-3001.3z M-764-2987.9l-2.1-2.1l-1705.9,1705.9l2.1,2.1L-764-2987.9z
	 M-750.7-2975.7l-2.1-2.1l-1705.9,1705.9l2.1,2.1L-750.7-2975.7z M-738.4-2962.3l-2.1-2.1l-1705.9,1705.9l2.1,2.1L-738.4-2962.3z
	 M-725-2950l-2.1-2.1l-1705.9,1705.9l2.1,2.1L-725-2950z M-712.7-2936.6l-2.1-2.1l-1705.9,1705.9l2.1,2.1L-712.7-2936.6z
	 M-699.3-2924.3l-2.1-2.1l-1705.9,1705.9l2.1,2.1L-699.3-2924.3z M-687.1-2911l-2.1-2.1l-1705.9,1705.9l2.1,2.1L-687.1-2911z
	 M-673.7-2898.7l-2.1-2.1l-1705.9,1705.9l2.1,2.1L-673.7-2898.7z M-661.4-2885.3l-2.1-2.1l-1705.9,1705.9l2.1,2.1L-661.4-2885.3z
	 M-648-2873l-2.1-2.1l-1705.9,1705.9l2.1,2.1L-648-2873z M-635.8-2859.6l-2.1-2.1l-1705.9,1705.9l2.1,2.1L-635.8-2859.6z
	 M-622.4-2847.4l-2.1-2.1l-1705.9,1705.9l2.1,2.1L-622.4-2847.4z M-610.1-2834l-2.1-2.1l-1705.9,1705.9l2.1,2.1L-610.1-2834z
	 M-596.7-2821.7l-2.1-2.1l-1705.9,1705.9l2.1,2.1L-596.7-2821.7z M-584.4-2808.3l-2.1-2.1l-1705.9,1705.9l2.1,2.1L-584.4-2808.3z
	 M-571.1-2796.1l-2.1-2.1l-1705.9,1705.9l2.1,2.1L-571.1-2796.1z M-558.8-2782.7l-2.1-2.1l-1705.9,1705.9l2.1,2.1L-558.8-2782.7z
	 M-545.4-2770.4l-2.1-2.1l-1705.9,1705.9l2.1,2.1L-545.4-2770.4z M-533.1-2757l-2.1-2.1l-1705.9,1705.9l2.1,2.1L-533.1-2757z
	 M-519.7-2744.7l-2.1-2.1l-1705.9,1705.9l2.1,2.1L-519.7-2744.7z M-507.5-2731.4l-2.1-2.1l-1705.9,1705.9l2.1,2.1L-507.5-2731.4z
	 M-494.1-2719.1l-2.1-2.1l-1705.9,1705.9l2.1,2.1L-494.1-2719.1z M-481.8-2705.7l-2.1-2.1l-1705.9,1705.9l2.1,2.1L-481.8-2705.7z
	 M-468.4-2693.4l-2.1-2.1L-2176.5-989.6l2.1,2.1L-468.4-2693.4z M-456.2-2680.1l-2.1-2.1L-2164.2-976.2l2.1,2.1L-456.2-2680.1z
	 M-442.8-2667.8l-2.1-2.1L-2150.8-964l2.1,2.1L-442.8-2667.8z M-430.5-2654.4l-2.1-2.1L-2138.6-950.6l2.1,2.1L-430.5-2654.4z
	 M-417.1-2642.1l-2.1-2.1L-2125.2-938.3l2.1,2.1L-417.1-2642.1z M-404.8-2628.7l-2.1-2.1L-2112.9-924.9l2.1,2.1L-404.8-2628.7z
	 M-391.5-2616.5l-2.1-2.1L-2099.5-912.6l2.1,2.1L-391.5-2616.5z M-379.2-2603.1l-2.1-2.1L-2087.3-899.3l2.1,2.1L-379.2-2603.1z
	 M-365.8-2590.8l-2.1-2.1L-2073.9-887l2.1,2.1L-365.8-2590.8z M-353.5-2577.4l-2.1-2.1L-2061.6-873.6l2.1,2.1L-353.5-2577.4z
	 M-340.2-2565.2l-2.1-2.1L-2048.2-861.3l2.1,2.1L-340.2-2565.2z M-327.9-2551.8l-2.1-2.1L-2035.9-847.9l2.1,2.1L-327.9-2551.8z
	 M-314.5-2539.5l-2.1-2.1L-2022.6-835.7l2.1,2.1L-314.5-2539.5z M-302.2-2526.1l-2.1-2.1L-2010.3-822.3l2.1,2.1L-302.2-2526.1z
	 M-288.8-2513.8l-2.1-2.1L-1996.9-810l2.1,2.1L-288.8-2513.8z M-276.6-2500.5l-2.1-2.1L-1984.6-796.6l2.1,2.1L-276.6-2500.5z
	 M-263.2-2488.2l-2.1-2.1L-1971.2-784.4l2.1,2.1L-263.2-2488.2z M-250.9-2474.8l-2.1-2.1L-1959-771l2.1,2.1L-250.9-2474.8z
	 M-237.5-2462.5l-2.1-2.1L-1945.6-758.7l2.1,2.1L-237.5-2462.5z M-225.3-2449.1l-2.1-2.1L-1933.3-745.3l2.1,2.1L-225.3-2449.1z
	 M-211.9-2436.9l-2.1-2.1L-1919.9-733l2.1,2.1L-211.9-2436.9z M-199.6-2423.5l-2.1-2.1L-1907.7-719.7l2.1,2.1L-199.6-2423.5z
	 M-186.2-2411.2l-2.1-2.1L-1894.3-707.4l2.1,2.1L-186.2-2411.2z M-173.9-2397.8l-2.1-2.1L-1882-694l2.1,2.1L-173.9-2397.8z
	 M-160.6-2385.6l-2.1-2.1L-1868.6-681.7l2.1,2.1L-160.6-2385.6z M-148.3-2372.2l-2.1-2.1L-1856.3-668.3l2.1,2.1L-148.3-2372.2z
	 M-134.9-2359.9l-2.1-2.1L-1843-656.1l2.1,2.1L-134.9-2359.9z M-122.6-2346.5l-2.1-2.1L-1830.7-642.7l2.1,2.1L-122.6-2346.5z
	 M-109.2-2334.2l-2.1-2.1L-1817.3-630.4l2.1,2.1L-109.2-2334.2z M-97-2320.9l-2.1-2.1L-1805-617l2.1,2.1L-97-2320.9z M-83.6-2308.6
	l-2.1-2.1L-1791.7-604.8l2.1,2.1L-83.6-2308.6z M-71.3-2295.2l-2.1-2.1L-1779.4-591.4l2.1,2.1L-71.3-2295.2z M-57.9-2282.9l-2.1-2.1
	L-1766-579.1l2.1,2.1L-57.9-2282.9z M-45.7-2269.6l-2.1-2.1L-1753.7-565.7l2.1,2.1L-45.7-2269.6z M-32.3-2257.3l-2.1-2.1
	L-1740.3-553.4l2.1,2.1L-32.3-2257.3z M-20-2243.9l-2.1-2.1L-1728.1-540.1l2.1,2.1L-20-2243.9z M-6.6-2231.6l-2.1-2.1L-1714.7-527.8
	l2.1,2.1L-6.6-2231.6z M5.7-2218.2l-2.1-2.1L-1702.4-514.4l2.1,2.1L5.7-2218.2z M19-2206l-2.1-2.1L-1689-502.1l2.1,2.1L19-2206z
	 M31.3-2192.6l-2.1-2.1L-1676.8-488.8l2.1,2.1L31.3-2192.6z M44.7-2180.3l-2.1-2.1L-1663.4-476.5l2.1,2.1L44.7-2180.3z M57-2166.9
	l-2.1-2.1L-1651.1-463.1l2.1,2.1L57-2166.9z M70.3-2154.6l-2.1-2.1L-1637.7-450.8l2.1,2.1L70.3-2154.6z M82.6-2141.3l-2.1-2.1
	L-1625.4-437.4l2.1,2.1L82.6-2141.3z M96-2129l-2.1-2.1L-1612.1-425.2l2.1,2.1L96-2129z M108.3-2115.6l-2.1-2.1L-1599.8-411.8
	l2.1,2.1L108.3-2115.6z M121.7-2103.3l-2.1-2.1L-1586.4-399.5l2.1,2.1L121.7-2103.3z M133.9-2090l-2.1-2.1L-1574.1-386.1l2.1,2.1
	L133.9-2090z M147.3-2077.7l-2.1-2.1L-1560.7-373.9l2.1,2.1L147.3-2077.7z M159.6-2064.3l-2.1-2.1L-1548.5-360.5l2.1,2.1
	L159.6-2064.3z M173-2052l-2.1-2.1L-1535.1-348.2l2.1,2.1L173-2052z M185.2-2038.6l-2.1-2.1L-1522.8-334.8l2.1,2.1L185.2-2038.6z
	 M198.6-2026.4l-2.1-2.1L-1509.4-322.5l2.1,2.1L198.6-2026.4z M210.9-2013l-2.1-2.1L-1497.2-309.2l2.1,2.1L210.9-2013z
	 M224.3-2000.7l-2.1-2.1L-1483.8-296.9l2.1,2.1L224.3-2000.7z M236.6-1987.3l-2.1-2.1L-1471.5-283.5l2.1,2.1L236.6-1987.3z
	 M249.9-1975.1l-2.1-2.1L-1458.1-271.2l2.1,2.1L249.9-1975.1z M262.2-1961.7l-2.1-2.1L-1445.8-257.8l2.1,2.1L262.2-1961.7z
	 M275.6-1949.4l-2.1-2.1L-1432.5-245.6l2.1,2.1L275.6-1949.4z M287.9-1936l-2.1-2.1L-1420.2-232.2l2.1,2.1L287.9-1936z
	 M301.3-1923.7l-2.1-2.1L-1406.8-219.9l2.1,2.1L301.3-1923.7z M313.5-1910.4l-2.1-2.1L-1394.5-206.5l2.1,2.1L313.5-1910.4z
	 M326.9-1898.1l-2.1-2.1L-1381.2-194.3l2.1,2.1L326.9-1898.1z M339.2-1884.7l-2.1-2.1L-1368.9-180.9l2.1,2.1L339.2-1884.7z
	 M352.6-1872.4l-2.1-2.1L-1355.5-168.6l2.1,2.1L352.6-1872.4z M364.8-1859l-2.1-2.1L-1343.2-155.2l2.1,2.1L364.8-1859z
	 M378.2-1846.8l-2.1-2.1L-1329.8-142.9l2.1,2.1L378.2-1846.8z M390.5-1833.4l-2.1-2.1L-1317.6-129.6l2.1,2.1L390.5-1833.4z
	 M403.9-1821.1l-2.1-2.1L-1304.2-117.3l2.1,2.1L403.9-1821.1z M416.2-1807.7l-2.1-2.1L-1291.9-103.9l2.1,2.1L416.2-1807.7z
	 M429.5-1795.5l-2.1-2.1L-1278.5-91.6l2.1,2.1L429.5-1795.5z M441.8-1782.1l-2.1-2.1L-1266.3-78.3l2.1,2.1L441.8-1782.1z
	 M455.2-1769.8l-2.1-2.1L-1252.9-66l2.1,2.1L455.2-1769.8z M467.5-1756.4l-2.1-2.1L-1240.6-52.6l2.1,2.1L467.5-1756.4z
	 M480.9-1744.1l-2.1-2.1L-1227.2-40.3l2.1,2.1L480.9-1744.1z M493.1-1730.8l-2.1-2.1L-1214.9-26.9l2.1,2.1L493.1-1730.8z
	 M506.5-1718.5l-2.1-2.1L-1201.6-14.7l2.1,2.1L506.5-1718.5z M518.8-1705.1l-2.1-2.1L-1189.3-1.3l2.1,2.1L518.8-1705.1z
	 M532.2-1692.8l-2.1-2.1L-1175.9,11l2.1,2.1L532.2-1692.8z M544.4-1679.5l-2.1-2.1L-1163.6,24.4l2.1,2.1L544.4-1679.5z
	 M557.8-1667.2l-2.1-2.1L-1150.2,36.6l2.1,2.1L557.8-1667.2z M570.1-1653.8l-2.1-2.1L-1138,50l2.1,2.1L570.1-1653.8z M583.5-1641.5
	l-2.1-2.1L-1124.6,62.3l2.1,2.1L583.5-1641.5z M595.8-1628.1l-2.1-2.1L-1112.3,75.7l2.1,2.1L595.8-1628.1z M609.1-1615.9l-2.1-2.1
	L-1098.9,88l2.1,2.1L609.1-1615.9z M621.4-1602.5l-2.1-2.1L-1086.7,101.3l2.1,2.1L621.4-1602.5z M634.8-1590.2l-2.1-2.1
	L-1073.3,113.6l2.1,2.1L634.8-1590.2z M647.1-1576.8l-2.1-2.1L-1061,127l2.1,2.1L647.1-1576.8z M660.4-1564.6l-2.1-2.1
	L-1047.6,139.3l2.1,2.1L660.4-1564.6z M672.7-1551.2l-2.1-2.1L-1035.3,152.7l2.1,2.1L672.7-1551.2z"/>
<path d="M-103.2-46.2c-13.8,8-29.8,12.5-46.8,12.5c0-17.1,4.6-33,12.5-46.8c-8-13.8-12.5-29.8-12.5-46.8c17.1,0,33,4.6,46.8,12.5
	c13.8-8,29.8-12.5,46.8-12.5c0,17.1-4.6,33-12.5,46.8c8,13.8,12.5,29.8,12.5,46.8C-73.4-33.7-89.4-38.3-103.2-46.2z M-56.3,59.9
	c0-17.1-4.6-33-12.5-46.8c8-13.8,12.5-29.8,12.5-46.8c-17.1,0-33,4.6-46.8,12.5c-13.8-8-29.8-12.5-46.8-12.5
	c0,17.1,4.6,33,12.5,46.8c-8,13.8-12.5,29.8-12.5,46.8c17.1,0,33-4.6,46.8-12.5C-89.4,55.4-73.4,59.9-56.3,59.9z M37.3-33.7
	c0-17.1-4.6-33-12.5-46.8c8-13.8,12.5-29.8,12.5-46.8c-17.1,0-33,4.6-46.8,12.5c-13.8-8-29.8-12.5-46.8-12.5
	c0,17.1,4.6,33,12.5,46.8c-8,13.8-12.5,29.8-12.5,46.8c17.1,0,33-4.6,46.8-12.5C4.3-38.3,20.2-33.7,37.3-33.7z M37.3,59.9
	c0-17.1-4.6-33-12.5-46.8c8-13.8,12.5-29.8,12.5-46.8c-17.1,0-33,4.6-46.8,12.5c-13.8-8-29.8-12.5-46.8-12.5
	c0,17.1,4.6,33,12.5,46.8c-8,13.8-12.5,29.8-12.5,46.8c17.1,0,33-4.6,46.8-12.5C4.3,55.4,20.2,59.9,37.3,59.9z M131-33.7
	c0-17.1-4.6-33-12.5-46.8c8-13.8,12.5-29.8,12.5-46.8c-17.1,0-33,4.6-46.8,12.5c-13.8-8-29.8-12.5-46.8-12.5
	c0,17.1,4.6,33,12.5,46.8c-8,13.8-12.5,29.8-12.5,46.8c17.1,0,33-4.6,46.8-12.5C97.9-38.3,113.9-33.7,131-33.7z M131,59.9
	c0-17.1-4.6-33-12.5-46.8c8-13.8,12.5-29.8,12.5-46.8c-17.1,0-33,4.6-46.8,12.5c-13.8-8-29.8-12.5-46.8-12.5
	c0,17.1,4.6,33,12.5,46.8c-8,13.8-12.5,29.8-12.5,46.8c17.1,0,33-4.6,46.8-12.5C97.9,55.4,113.9,59.9,131,59.9z M224.6-33.7
	c0-17.1-4.6-33-12.5-46.8c8-13.8,12.5-29.8,12.5-46.8c-17.1,0-33,4.6-46.8,12.5c-13.8-8-29.8-12.5-46.8-12.5
	c0,17.1,4.6,33,12.5,46.8c-8,13.8-12.5,29.8-12.5,46.8c17.1,0,33-4.6,46.8-12.5C191.6-38.3,207.5-33.7,224.6-33.7z M224.6,59.9
	c0-17.1-4.6-33-12.5-46.8c8-13.8,12.5-29.8,12.5-46.8c-17.1,0-33,4.6-46.8,12.5C164-29.1,148-33.7,131-33.7c0,17.1,4.6,33,12.5,46.8
	c-8,13.8-12.5,29.8-12.5,46.8c17.1,0,33-4.6,46.8-12.5C191.6,55.4,207.5,59.9,224.6,59.9z M-56.3,153.8c0-17.1-4.6-33-12.5-46.8
	c8-13.8,12.5-29.8,12.5-46.8c-17.1,0-33,4.6-46.8,12.5c-13.8-8-29.8-12.5-46.8-12.5c0,17.1,4.6,33,12.5,46.8
	c-8,13.8-12.5,29.8-12.5,46.8c17.1,0,33-4.6,46.8-12.5C-89.4,149.3-73.4,153.8-56.3,153.8z M-56.3,247.5c0-17.1-4.6-33-12.5-46.8
	c8-13.8,12.5-29.8,12.5-46.8c-17.1,0-33,4.6-46.8,12.5c-13.8-8-29.8-12.5-46.8-12.5c0,17.1,4.6,33,12.5,46.8
	c-8,13.8-12.5,29.8-12.5,46.8c17.1,0,33-4.6,46.8-12.5C-89.4,242.9-73.4,247.5-56.3,247.5z M-56.3,341.1c0-17.1-4.6-33-12.5-46.8
	c8-13.8,12.5-29.8,12.5-46.8c-17.1,0-33,4.6-46.8,12.5c-13.8-8-29.8-12.5-46.8-12.5c0,17.1,4.6,33,12.5,46.8
	c-8,13.8-12.5,29.8-12.5,46.8c17.1,0,33-4.6,46.8-12.5C-89.4,336.6-73.4,341.1-56.3,341.1z M37.3,153.8c0-17.1-4.6-33-12.5-46.8
	c8-13.8,12.5-29.8,12.5-46.8c-17.1,0-33,4.6-46.8,12.5c-13.8-8-29.8-12.5-46.8-12.5c0,17.1,4.6,33,12.5,46.8
	c-8,13.8-12.5,29.8-12.5,46.8c17.1,0,33-4.6,46.8-12.5C4.3,149.3,20.2,153.8,37.3,153.8z M37.3,247.5c0-17.1-4.6-33-12.5-46.8
	c8-13.8,12.5-29.8,12.5-46.8c-17.1,0-33,4.6-46.8,12.5c-13.8-8-29.8-12.5-46.8-12.5c0,17.1,4.6,33,12.5,46.8
	c-8,13.8-12.5,29.8-12.5,46.8c17.1,0,33-4.6,46.8-12.5C4.3,242.9,20.2,247.5,37.3,247.5z M37.3,341.1c0-17.1-4.6-33-12.5-46.8
	c8-13.8,12.5-29.8,12.5-46.8c-17.1,0-33,4.6-46.8,12.5c-13.8-8-29.8-12.5-46.8-12.5c0,17.1,4.6,33,12.5,46.8
	c-8,13.8-12.5,29.8-12.5,46.8c17.1,0,33-4.6,46.8-12.5C4.3,336.6,20.2,341.1,37.3,341.1z M131,153.8c0-17.1-4.6-33-12.5-46.8
	c8-13.8,12.5-29.8,12.5-46.8c-17.1,0-33,4.6-46.8,12.5c-13.8-8-29.8-12.5-46.8-12.5c0,17.1,4.6,33,12.5,46.8
	c-8,13.8-12.5,29.8-12.5,46.8c17.1,0,33-4.6,46.8-12.5C97.9,149.3,113.9,153.8,131,153.8z M131,247.5c0-17.1-4.6-33-12.5-46.8
	c8-13.8,12.5-29.8,12.5-46.8c-17.1,0-33,4.6-46.8,12.5c-13.8-8-29.8-12.5-46.8-12.5c0,17.1,4.6,33,12.5,46.8
	c-8,13.8-12.5,29.8-12.5,46.8c17.1,0,33-4.6,46.8-12.5C97.9,242.9,113.9,247.5,131,247.5z M131,341.1c0-17.1-4.6-33-12.5-46.8
	c8-13.8,12.5-29.8,12.5-46.8c-17.1,0-33,4.6-46.8,12.5c-13.8-8-29.8-12.5-46.8-12.5c0,17.1,4.6,33,12.5,46.8
	c-8,13.8-12.5,29.8-12.5,46.8c17.1,0,33-4.6,46.8-12.5C97.9,336.6,113.9,341.1,131,341.1z M224.6,153.8c0-17.1-4.6-33-12.5-46.8
	c8-13.8,12.5-29.8,12.5-46.8c-17.1,0-33,4.6-46.8,12.5C164,64.7,148,60.2,131,60.2c0,17.1,4.6,33,12.5,46.8
	c-8,13.8-12.5,29.8-12.5,46.8c17.1,0,33-4.6,46.8-12.5C191.6,149.3,207.5,153.8,224.6,153.8z M224.6,247.5c0-17.1-4.6-33-12.5-46.8
	c8-13.8,12.5-29.8,12.5-46.8c-17.1,0-33,4.6-46.8,12.5c-13.8-8-29.8-12.5-46.8-12.5c0,17.1,4.6,33,12.5,46.8
	c-8,13.8-12.5,29.8-12.5,46.8c17.1,0,33-4.6,46.8-12.5C191.6,242.9,207.5,247.5,224.6,247.5z M224.6,341.1c0-17.1-4.6-33-12.5-46.8
	c8-13.8,12.5-29.8,12.5-46.8c-17.1,0-33,4.6-46.8,12.5c-13.8-8-29.8-12.5-46.8-12.5c0,17.1,4.6,33,12.5,46.8
	c-8,13.8-12.5,29.8-12.5,46.8c17.1,0,33-4.6,46.8-12.5C191.6,336.6,207.5,341.1,224.6,341.1z M318.7-33.7c0-17.1-4.6-33-12.5-46.8
	c8-13.8,12.5-29.8,12.5-46.8c-17.1,0-33,4.6-46.8,12.5c-13.8-8-29.8-12.5-46.8-12.5c0,17.1,4.6,33,12.5,46.8
	c-8,13.8-12.5,29.8-12.5,46.8c17.1,0,33-4.6,46.8-12.5C285.6-38.3,301.6-33.7,318.7-33.7z M318.7,59.9c0-17.1-4.6-33-12.5-46.8
	c8-13.8,12.5-29.8,12.5-46.8c-17.1,0-33,4.6-46.8,12.5c-13.8-8-29.8-12.5-46.8-12.5c0,17.1,4.6,33,12.5,46.8
	c-8,13.8-12.5,29.8-12.5,46.8c17.1,0,33-4.6,46.8-12.5C285.6,55.4,301.6,59.9,318.7,59.9z M412.3-33.7c0-17.1-4.6-33-12.5-46.8
	c8-13.8,12.5-29.8,12.5-46.8c-17.1,0-33,4.6-46.8,12.5c-13.8-8-29.8-12.5-46.8-12.5c0,17.1,4.6,33,12.5,46.8
	c-8,13.8-12.5,29.8-12.5,46.8c17.1,0,33-4.6,46.8-12.5C379.3-38.3,395.2-33.7,412.3-33.7z M412.3,59.9c0-17.1-4.6-33-12.5-46.8
	c8-13.8,12.5-29.8,12.5-46.8c-17.1,0-33,4.6-46.8,12.5c-13.8-8-29.8-12.5-46.8-12.5c0,17.1,4.6,33,12.5,46.8
	c-8,13.8-12.5,29.8-12.5,46.8c17.1,0,33-4.6,46.8-12.5C379.3,55.4,395.2,59.9,412.3,59.9z M506-33.7c0-17.1-4.6-33-12.5-46.8
	c8-13.8,12.5-29.8,12.5-46.8c-17.1,0-33,4.6-46.8,12.5c-13.8-8-29.8-12.5-46.8-12.5c0,17.1,4.6,33,12.5,46.8
	c-8,13.8-12.5,29.8-12.5,46.8c17.1,0,33-4.6,46.8-12.5C472.9-38.3,488.9-33.7,506-33.7z M506,59.9c0-17.1-4.6-33-12.5-46.8
	c8-13.8,12.5-29.8,12.5-46.8c-17.1,0-33,4.6-46.8,12.5c-13.8-8-29.8-12.5-46.8-12.5c0,17.1,4.6,33,12.5,46.8
	c-8,13.8-12.5,29.8-12.5,46.8c17.1,0,33-4.6,46.8-12.5C472.9,55.4,488.9,59.9,506,59.9z M599.6-33.7c0-17.1-4.6-33-12.5-46.8
	c8-13.8,12.5-29.8,12.5-46.8c-17.1,0-33,4.6-46.8,12.5c-13.8-8-29.8-12.5-46.8-12.5c0,17.1,4.6,33,12.5,46.8
	c-8,13.8-12.5,29.8-12.5,46.8c17.1,0,33-4.6,46.8-12.5C566.6-38.3,582.5-33.7,599.6-33.7z M599.6,59.9c0-17.1-4.6-33-12.5-46.8
	c8-13.8,12.5-29.8,12.5-46.8c-17.1,0-33,4.6-46.8,12.5C539-29.1,523-33.7,506-33.7c0,17.1,4.6,33,12.5,46.8
	c-8,13.8-12.5,29.8-12.5,46.8c17.1,0,33-4.6,46.8-12.5C566.6,55.4,582.5,59.9,599.6,59.9z M318.7,153.8c0-17.1-4.6-33-12.5-46.8
	c8-13.8,12.5-29.8,12.5-46.8c-17.1,0-33,4.6-46.8,12.5c-13.8-8-29.8-12.5-46.8-12.5c0,17.1,4.6,33,12.5,46.8
	c-8,13.8-12.5,29.8-12.5,46.8c17.1,0,33-4.6,46.8-12.5C285.6,149.3,301.6,153.8,318.7,153.8z M318.7,247.5c0-17.1-4.6-33-12.5-46.8
	c8-13.8,12.5-29.8,12.5-46.8c-17.1,0-33,4.6-46.8,12.5c-13.8-8-29.8-12.5-46.8-12.5c0,17.1,4.6,33,12.5,46.8
	c-8,13.8-12.5,29.8-12.5,46.8c17.1,0,33-4.6,46.8-12.5C285.6,242.9,301.6,247.5,318.7,247.5z M318.7,341.1c0-17.1-4.6-33-12.5-46.8
	c8-13.8,12.5-29.8,12.5-46.8c-17.1,0-33,4.6-46.8,12.5c-13.8-8-29.8-12.5-46.8-12.5c0,17.1,4.6,33,12.5,46.8
	c-8,13.8-12.5,29.8-12.5,46.8c17.1,0,33-4.6,46.8-12.5C285.6,336.6,301.6,341.1,318.7,341.1z M412.3,153.8c0-17.1-4.6-33-12.5-46.8
	c8-13.8,12.5-29.8,12.5-46.8c-17.1,0-33,4.6-46.8,12.5c-13.8-8-29.8-12.5-46.8-12.5c0,17.1,4.6,33,12.5,46.8
	c-8,13.8-12.5,29.8-12.5,46.8c17.1,0,33-4.6,46.8-12.5C379.3,149.3,395.2,153.8,412.3,153.8z M412.3,247.5c0-17.1-4.6-33-12.5-46.8
	c8-13.8,12.5-29.8,12.5-46.8c-17.1,0-33,4.6-46.8,12.5c-13.8-8-29.8-12.5-46.8-12.5c0,17.1,4.6,33,12.5,46.8
	c-8,13.8-12.5,29.8-12.5,46.8c17.1,0,33-4.6,46.8-12.5C379.3,242.9,395.2,247.5,412.3,247.5z M412.3,341.1c0-17.1-4.6-33-12.5-46.8
	c8-13.8,12.5-29.8,12.5-46.8c-17.1,0-33,4.6-46.8,12.5c-13.8-8-29.8-12.5-46.8-12.5c0,17.1,4.6,33,12.5,46.8
	c-8,13.8-12.5,29.8-12.5,46.8c17.1,0,33-4.6,46.8-12.5C379.3,336.6,395.2,341.1,412.3,341.1z M506,153.8c0-17.1-4.6-33-12.5-46.8
	c8-13.8,12.5-29.8,12.5-46.8c-17.1,0-33,4.6-46.8,12.5c-13.8-8-29.8-12.5-46.8-12.5c0,17.1,4.6,33,12.5,46.8
	c-8,13.8-12.5,29.8-12.5,46.8c17.1,0,33-4.6,46.8-12.5C472.9,149.3,488.9,153.8,506,153.8z M506,247.5c0-17.1-4.6-33-12.5-46.8
	c8-13.8,12.5-29.8,12.5-46.8c-17.1,0-33,4.6-46.8,12.5c-13.8-8-29.8-12.5-46.8-12.5c0,17.1,4.6,33,12.5,46.8
	c-8,13.8-12.5,29.8-12.5,46.8c17.1,0,33-4.6,46.8-12.5C472.9,242.9,488.9,247.5,506,247.5z M506,341.1c0-17.1-4.6-33-12.5-46.8
	c8-13.8,12.5-29.8,12.5-46.8c-17.1,0-33,4.6-46.8,12.5c-13.8-8-29.8-12.5-46.8-12.5c0,17.1,4.6,33,12.5,46.8
	c-8,13.8-12.5,29.8-12.5,46.8c17.1,0,33-4.6,46.8-12.5C472.9,336.6,488.9,341.1,506,341.1z M599.6,153.8c0-17.1-4.6-33-12.5-46.8
	c8-13.8,12.5-29.8,12.5-46.8c-17.1,0-33,4.6-46.8,12.5C539,64.7,523,60.2,506,60.2c0,17.1,4.6,33,12.5,46.8
	c-8,13.8-12.5,29.8-12.5,46.8c17.1,0,33-4.6,46.8-12.5C566.6,149.3,582.5,153.8,599.6,153.8z M599.6,247.5c0-17.1-4.6-33-12.5-46.8
	c8-13.8,12.5-29.8,12.5-46.8c-17.1,0-33,4.6-46.8,12.5c-13.8-8-29.8-12.5-46.8-12.5c0,17.1,4.6,33,12.5,46.8
	c-8,13.8-12.5,29.8-12.5,46.8c17.1,0,33-4.6,46.8-12.5C566.6,242.9,582.5,247.5,599.6,247.5z M599.6,341.1c0-17.1-4.6-33-12.5-46.8
	c8-13.8,12.5-29.8,12.5-46.8c-17.1,0-33,4.6-46.8,12.5c-13.8-8-29.8-12.5-46.8-12.5c0,17.1,4.6,33,12.5,46.8
	c-8,13.8-12.5,29.8-12.5,46.8c17.1,0,33-4.6,46.8-12.5C566.6,336.6,582.5,341.1,599.6,341.1z M693.7-33.7c0-17.1-4.6-33-12.5-46.8
	c8-13.8,12.5-29.8,12.5-46.8c-17.1,0-33,4.6-46.8,12.5c-13.8-8-29.8-12.5-46.8-12.5c0,17.1,4.6,33,12.5,46.8
	c-8,13.8-12.5,29.8-12.5,46.8c17.1,0,33-4.6,46.8-12.5C660.6-38.3,676.6-33.7,693.7-33.7z M693.7,59.9c0-17.1-4.6-33-12.5-46.8
	c8-13.8,12.5-29.8,12.5-46.8c-17.1,0-33,4.6-46.8,12.5c-13.8-8-29.8-12.5-46.8-12.5c0,17.1,4.6,33,12.5,46.8
	c-8,13.8-12.5,29.8-12.5,46.8c17.1,0,33-4.6,46.8-12.5C660.6,55.4,676.6,59.9,693.7,59.9z M787.3-33.7c0-17.1-4.6-33-12.5-46.8
	c8-13.8,12.5-29.8,12.5-46.8c-17.1,0-33,4.6-46.8,12.5c-13.8-8-29.8-12.5-46.8-12.5c0,17.1,4.6,33,12.5,46.8
	c-8,13.8-12.5,29.8-12.5,46.8c17.1,0,33-4.6,46.8-12.5C754.3-38.3,770.2-33.7,787.3-33.7z M787.3,59.9c0-17.1-4.6-33-12.5-46.8
	c8-13.8,12.5-29.8,12.5-46.8c-17.1,0-33,4.6-46.8,12.5c-13.8-8-29.8-12.5-46.8-12.5c0,17.1,4.6,33,12.5,46.8
	c-8,13.8-12.5,29.8-12.5,46.8c17.1,0,33-4.6,46.8-12.5C754.3,55.4,770.2,59.9,787.3,59.9z M881-33.7c0-17.1-4.6-33-12.5-46.8
	c8-13.8,12.5-29.8,12.5-46.8c-17.1,0-33,4.6-46.8,12.5c-13.8-8-29.8-12.5-46.8-12.5c0,17.1,4.6,33,12.5,46.8
	c-8,13.8-12.5,29.8-12.5,46.8c17.1,0,33-4.6,46.8-12.5C847.9-38.3,863.9-33.7,881-33.7z M881,59.9c0-17.1-4.6-33-12.5-46.8
	c8-13.8,12.5-29.8,12.5-46.8c-17.1,0-33,4.6-46.8,12.5c-13.8-8-29.8-12.5-46.8-12.5c0,17.1,4.6,33,12.5,46.8
	c-8,13.8-12.5,29.8-12.5,46.8c17.1,0,33-4.6,46.8-12.5C847.9,55.4,863.9,59.9,881,59.9z M974.6-33.7c0-17.1-4.6-33-12.5-46.8
	c8-13.8,12.5-29.8,12.5-46.8c-17.1,0-33,4.6-46.8,12.5c-13.8-8-29.8-12.5-46.8-12.5c0,17.1,4.6,33,12.5,46.8
	c-8,13.8-12.5,29.8-12.5,46.8c17.1,0,33-4.6,46.8-12.5C941.6-38.3,957.5-33.7,974.6-33.7z M974.6,59.9c0-17.1-4.6-33-12.5-46.8
	c8-13.8,12.5-29.8,12.5-46.8c-17.1,0-33,4.6-46.8,12.5C914-29.1,898-33.7,881-33.7c0,17.1,4.6,33,12.5,46.8
	c-8,13.8-12.5,29.8-12.5,46.8c17.1,0,33-4.6,46.8-12.5C941.6,55.4,957.5,59.9,974.6,59.9z M693.7,153.8c0-17.1-4.6-33-12.5-46.8
	c8-13.8,12.5-29.8,12.5-46.8c-17.1,0-33,4.6-46.8,12.5c-13.8-8-29.8-12.5-46.8-12.5c0,17.1,4.6,33,12.5,46.8
	c-8,13.8-12.5,29.8-12.5,46.8c17.1,0,33-4.6,46.8-12.5C660.6,149.3,676.6,153.8,693.7,153.8z M693.7,247.5c0-17.1-4.6-33-12.5-46.8
	c8-13.8,12.5-29.8,12.5-46.8c-17.1,0-33,4.6-46.8,12.5c-13.8-8-29.8-12.5-46.8-12.5c0,17.1,4.6,33,12.5,46.8
	c-8,13.8-12.5,29.8-12.5,46.8c17.1,0,33-4.6,46.8-12.5C660.6,242.9,676.6,247.5,693.7,247.5z M693.7,341.1c0-17.1-4.6-33-12.5-46.8
	c8-13.8,12.5-29.8,12.5-46.8c-17.1,0-33,4.6-46.8,12.5c-13.8-8-29.8-12.5-46.8-12.5c0,17.1,4.6,33,12.5,46.8
	c-8,13.8-12.5,29.8-12.5,46.8c17.1,0,33-4.6,46.8-12.5C660.6,336.6,676.6,341.1,693.7,341.1z M787.3,153.8c0-17.1-4.6-33-12.5-46.8
	c8-13.8,12.5-29.8,12.5-46.8c-17.1,0-33,4.6-46.8,12.5c-13.8-8-29.8-12.5-46.8-12.5c0,17.1,4.6,33,12.5,46.8
	c-8,13.8-12.5,29.8-12.5,46.8c17.1,0,33-4.6,46.8-12.5C754.3,149.3,770.2,153.8,787.3,153.8z M787.3,247.5c0-17.1-4.6-33-12.5-46.8
	c8-13.8,12.5-29.8,12.5-46.8c-17.1,0-33,4.6-46.8,12.5c-13.8-8-29.8-12.5-46.8-12.5c0,17.1,4.6,33,12.5,46.8
	c-8,13.8-12.5,29.8-12.5,46.8c17.1,0,33-4.6,46.8-12.5C754.3,242.9,770.2,247.5,787.3,247.5z M787.3,341.1c0-17.1-4.6-33-12.5-46.8
	c8-13.8,12.5-29.8,12.5-46.8c-17.1,0-33,4.6-46.8,12.5c-13.8-8-29.8-12.5-46.8-12.5c0,17.1,4.6,33,12.5,46.8
	c-8,13.8-12.5,29.8-12.5,46.8c17.1,0,33-4.6,46.8-12.5C754.3,336.6,770.2,341.1,787.3,341.1z M881,153.8c0-17.1-4.6-33-12.5-46.8
	c8-13.8,12.5-29.8,12.5-46.8c-17.1,0-33,4.6-46.8,12.5c-13.8-8-29.8-12.5-46.8-12.5c0,17.1,4.6,33,12.5,46.8
	c-8,13.8-12.5,29.8-12.5,46.8c17.1,0,33-4.6,46.8-12.5C847.9,149.3,863.9,153.8,881,153.8z M881,247.5c0-17.1-4.6-33-12.5-46.8
	c8-13.8,12.5-29.8,12.5-46.8c-17.1,0-33,4.6-46.8,12.5c-13.8-8-29.8-12.5-46.8-12.5c0,17.1,4.6,33,12.5,46.8
	c-8,13.8-12.5,29.8-12.5,46.8c17.1,0,33-4.6,46.8-12.5C847.9,242.9,863.9,247.5,881,247.5z M881,341.1c0-17.1-4.6-33-12.5-46.8
	c8-13.8,12.5-29.8,12.5-46.8c-17.1,0-33,4.6-46.8,12.5c-13.8-8-29.8-12.5-46.8-12.5c0,17.1,4.6,33,12.5,46.8
	c-8,13.8-12.5,29.8-12.5,46.8c17.1,0,33-4.6,46.8-12.5C847.9,336.6,863.9,341.1,881,341.1z M974.6,153.8c0-17.1-4.6-33-12.5-46.8
	c8-13.8,12.5-29.8,12.5-46.8c-17.1,0-33,4.6-46.8,12.5C914,64.7,898,60.2,881,60.2c0,17.1,4.6,33,12.5,46.8
	c-8,13.8-12.5,29.8-12.5,46.8c17.1,0,33-4.6,46.8-12.5C941.6,149.3,957.5,153.8,974.6,153.8z M974.6,247.5c0-17.1-4.6-33-12.5-46.8
	c8-13.8,12.5-29.8,12.5-46.8c-17.1,0-33,4.6-46.8,12.5c-13.8-8-29.8-12.5-46.8-12.5c0,17.1,4.6,33,12.5,46.8
	c-8,13.8-12.5,29.8-12.5,46.8c17.1,0,33-4.6,46.8-12.5C941.6,242.9,957.5,247.5,974.6,247.5z M974.6,341.1c0-17.1-4.6-33-12.5-46.8
	c8-13.8,12.5-29.8,12.5-46.8c-17.1,0-33,4.6-46.8,12.5c-13.8-8-29.8-12.5-46.8-12.5c0,17.1,4.6,33,12.5,46.8
	c-8,13.8-12.5,29.8-12.5,46.8c17.1,0,33-4.6,46.8-12.5C941.6,336.6,957.5,341.1,974.6,341.1z M1068.7-33.7c0-17.1-4.6-33-12.5-46.8
	c8-13.8,12.5-29.8,12.5-46.8c-17.1,0-33,4.6-46.8,12.5c-13.8-8-29.8-12.5-46.8-12.5c0,17.1,4.6,33,12.5,46.8
	c-8,13.8-12.5,29.8-12.5,46.8c17.1,0,33-4.6,46.8-12.5C1035.6-38.3,1051.6-33.7,1068.7-33.7z M1068.7,59.9c0-17.1-4.6-33-12.5-46.8
	c8-13.8,12.5-29.8,12.5-46.8c-17.1,0-33,4.6-46.8,12.5c-13.8-8-29.8-12.5-46.8-12.5c0,17.1,4.6,33,12.5,46.8
	c-8,13.8-12.5,29.8-12.5,46.8c17.1,0,33-4.6,46.8-12.5C1035.6,55.4,1051.6,59.9,1068.7,59.9z M1162.3-33.7c0-17.1-4.6-33-12.5-46.8
	c8-13.8,12.5-29.8,12.5-46.8c-17.1,0-33,4.6-46.8,12.5c-13.8-8-29.8-12.5-46.8-12.5c0,17.1,4.6,33,12.5,46.8
	c-8,13.8-12.5,29.8-12.5,46.8c17.1,0,33-4.6,46.8-12.5C1129.3-38.3,1145.2-33.7,1162.3-33.7z M1162.3,59.9c0-17.1-4.6-33-12.5-46.8
	c8-13.8,12.5-29.8,12.5-46.8c-17.1,0-33,4.6-46.8,12.5c-13.8-8-29.8-12.5-46.8-12.5c0,17.1,4.6,33,12.5,46.8
	c-8,13.8-12.5,29.8-12.5,46.8c17.1,0,33-4.6,46.8-12.5C1129.3,55.4,1145.2,59.9,1162.3,59.9z M1256-33.7c0-17.1-4.6-33-12.5-46.8
	c8-13.8,12.5-29.8,12.5-46.8c-17.1,0-33,4.6-46.8,12.5c-13.8-8-29.8-12.5-46.8-12.5c0,17.1,4.6,33,12.5,46.8
	c-8,13.8-12.5,29.8-12.5,46.8c17.1,0,33-4.6,46.8-12.5C1222.9-38.3,1238.9-33.7,1256-33.7z M1256,59.9c0-17.1-4.6-33-12.5-46.8
	c8-13.8,12.5-29.8,12.5-46.8c-17.1,0-33,4.6-46.8,12.5c-13.8-8-29.8-12.5-46.8-12.5c0,17.1,4.6,33,12.5,46.8
	c-8,13.8-12.5,29.8-12.5,46.8c17.1,0,33-4.6,46.8-12.5C1222.9,55.4,1238.9,59.9,1256,59.9z M1349.6-33.7c0-17.1-4.6-33-12.5-46.8
	c8-13.8,12.5-29.8,12.5-46.8c-17.1,0-33,4.6-46.8,12.5c-13.8-8-29.8-12.5-46.8-12.5c0,17.1,4.6,33,12.5,46.8
	c-8,13.8-12.5,29.8-12.5,46.8c17.1,0,33-4.6,46.8-12.5C1316.6-38.3,1332.5-33.7,1349.6-33.7z M1349.6,59.9c0-17.1-4.6-33-12.5-46.8
	c8-13.8,12.5-29.8,12.5-46.8c-17.1,0-33,4.6-46.8,12.5c-13.8-8-29.8-12.5-46.8-12.5c0,17.1,4.6,33,12.5,46.8
	c-8,13.8-12.5,29.8-12.5,46.8c17.1,0,33-4.6,46.8-12.5C1316.6,55.4,1332.5,59.9,1349.6,59.9z M1068.7,153.8c0-17.1-4.6-33-12.5-46.8
	c8-13.8,12.5-29.8,12.5-46.8c-17.1,0-33,4.6-46.8,12.5c-13.8-8-29.8-12.5-46.8-12.5c0,17.1,4.6,33,12.5,46.8
	c-8,13.8-12.5,29.8-12.5,46.8c17.1,0,33-4.6,46.8-12.5C1035.6,149.3,1051.6,153.8,1068.7,153.8z M1068.7,247.5
	c0-17.1-4.6-33-12.5-46.8c8-13.8,12.5-29.8,12.5-46.8c-17.1,0-33,4.6-46.8,12.5c-13.8-8-29.8-12.5-46.8-12.5
	c0,17.1,4.6,33,12.5,46.8c-8,13.8-12.5,29.8-12.5,46.8c17.1,0,33-4.6,46.8-12.5C1035.6,242.9,1051.6,247.5,1068.7,247.5z
	 M1068.7,341.1c0-17.1-4.6-33-12.5-46.8c8-13.8,12.5-29.8,12.5-46.8c-17.1,0-33,4.6-46.8,12.5c-13.8-8-29.8-12.5-46.8-12.5
	c0,17.1,4.6,33,12.5,46.8c-8,13.8-12.5,29.8-12.5,46.8c17.1,0,33-4.6,46.8-12.5C1035.6,336.6,1051.6,341.1,1068.7,341.1z
	 M1162.3,153.8c0-17.1-4.6-33-12.5-46.8c8-13.8,12.5-29.8,12.5-46.8c-17.1,0-33,4.6-46.8,12.5c-13.8-8-29.8-12.5-46.8-12.5
	c0,17.1,4.6,33,12.5,46.8c-8,13.8-12.5,29.8-12.5,46.8c17.1,0,33-4.6,46.8-12.5C1129.3,149.3,1145.2,153.8,1162.3,153.8z
	 M1162.3,247.5c0-17.1-4.6-33-12.5-46.8c8-13.8,12.5-29.8,12.5-46.8c-17.1,0-33,4.6-46.8,12.5c-13.8-8-29.8-12.5-46.8-12.5
	c0,17.1,4.6,33,12.5,46.8c-8,13.8-12.5,29.8-12.5,46.8c17.1,0,33-4.6,46.8-12.5C1129.3,242.9,1145.2,247.5,1162.3,247.5z
	 M1162.3,341.1c0-17.1-4.6-33-12.5-46.8c8-13.8,12.5-29.8,12.5-46.8c-17.1,0-33,4.6-46.8,12.5c-13.8-8-29.8-12.5-46.8-12.5
	c0,17.1,4.6,33,12.5,46.8c-8,13.8-12.5,29.8-12.5,46.8c17.1,0,33-4.6,46.8-12.5C1129.3,336.6,1145.2,341.1,1162.3,341.1z
	 M1256,153.8c0-17.1-4.6-33-12.5-46.8c8-13.8,12.5-29.8,12.5-46.8c-17.1,0-33,4.6-46.8,12.5c-13.8-8-29.8-12.5-46.8-12.5
	c0,17.1,4.6,33,12.5,46.8c-8,13.8-12.5,29.8-12.5,46.8c17.1,0,33-4.6,46.8-12.5C1222.9,149.3,1238.9,153.8,1256,153.8z M1256,247.5
	c0-17.1-4.6-33-12.5-46.8c8-13.8,12.5-29.8,12.5-46.8c-17.1,0-33,4.6-46.8,12.5c-13.8-8-29.8-12.5-46.8-12.5
	c0,17.1,4.6,33,12.5,46.8c-8,13.8-12.5,29.8-12.5,46.8c17.1,0,33-4.6,46.8-12.5C1222.9,242.9,1238.9,247.5,1256,247.5z M1256,341.1
	c0-17.1-4.6-33-12.5-46.8c8-13.8,12.5-29.8,12.5-46.8c-17.1,0-33,4.6-46.8,12.5c-13.8-8-29.8-12.5-46.8-12.5
	c0,17.1,4.6,33,12.5,46.8c-8,13.8-12.5,29.8-12.5,46.8c17.1,0,33-4.6,46.8-12.5C1222.9,336.6,1238.9,341.1,1256,341.1z
	 M1349.6,153.8c0-17.1-4.6-33-12.5-46.8c8-13.8,12.5-29.8,12.5-46.8c-17.1,0-33,4.6-46.8,12.5c-13.8-8-29.8-12.5-46.8-12.5
	c0,17.1,4.6,33,12.5,46.8c-8,13.8-12.5,29.8-12.5,46.8c17.1,0,33-4.6,46.8-12.5C1316.6,149.3,1332.5,153.8,1349.6,153.8z
	 M1349.6,247.5c0-17.1-4.6-33-12.5-46.8c8-13.8,12.5-29.8,12.5-46.8c-17.1,0-33,4.6-46.8,12.5c-13.8-8-29.8-12.5-46.8-12.5
	c0,17.1,4.6,33,12.5,46.8c-8,13.8-12.5,29.8-12.5,46.8c17.1,0,33-4.6,46.8-12.5C1316.6,242.9,1332.5,247.5,1349.6,247.5z
	 M1349.6,341.1c0-17.1-4.6-33-12.5-46.8c8-13.8,12.5-29.8,12.5-46.8c-17.1,0-33,4.6-46.8,12.5c-13.8-8-29.8-12.5-46.8-12.5
	c0,17.1,4.6,33,12.5,46.8c-8,13.8-12.5,29.8-12.5,46.8c17.1,0,33-4.6,46.8-12.5C1316.6,336.6,1332.5,341.1,1349.6,341.1z
	 M1443.7-33.7c0-17.1-4.6-33-12.5-46.8c8-13.8,12.5-29.8,12.5-46.8c-17.1,0-33,4.6-46.8,12.5c-13.8-8-29.8-12.5-46.8-12.5
	c0,17.1,4.6,33,12.5,46.8c-8,13.8-12.5,29.8-12.5,46.8c17.1,0,33-4.6,46.8-12.5C1410.6-38.3,1426.6-33.7,1443.7-33.7z M1443.7,59.9
	c0-17.1-4.6-33-12.5-46.8c8-13.8,12.5-29.8,12.5-46.8c-17.1,0-33,4.6-46.8,12.5c-13.8-8-29.8-12.5-46.8-12.5
	c0,17.1,4.6,33,12.5,46.8c-8,13.8-12.5,29.8-12.5,46.8c17.1,0,33-4.6,46.8-12.5C1410.6,55.4,1426.6,59.9,1443.7,59.9z M1537.3-33.7
	c0-17.1-4.6-33-12.5-46.8c8-13.8,12.5-29.8,12.5-46.8c-17.1,0-33,4.6-46.8,12.5c-13.8-8-29.8-12.5-46.8-12.5
	c0,17.1,4.6,33,12.5,46.8c-8,13.8-12.5,29.8-12.5,46.8c17.1,0,33-4.6,46.8-12.5C1504.3-38.3,1520.2-33.7,1537.3-33.7z M1537.3,59.9
	c0-17.1-4.6-33-12.5-46.8c8-13.8,12.5-29.8,12.5-46.8c-17.1,0-33,4.6-46.8,12.5c-13.8-8-29.8-12.5-46.8-12.5
	c0,17.1,4.6,33,12.5,46.8c-8,13.8-12.5,29.8-12.5,46.8c17.1,0,33-4.6,46.8-12.5C1504.3,55.4,1520.2,59.9,1537.3,59.9z M1631-33.7
	c0-17.1-4.6-33-12.5-46.8c8-13.8,12.5-29.8,12.5-46.8c-17.1,0-33,4.6-46.8,12.5c-13.8-8-29.8-12.5-46.8-12.5
	c0,17.1,4.6,33,12.5,46.8c-8,13.8-12.5,29.8-12.5,46.8c17.1,0,33-4.6,46.8-12.5C1597.9-38.3,1613.9-33.7,1631-33.7z M1631,59.9
	c0-17.1-4.6-33-12.5-46.8c8-13.8,12.5-29.8,12.5-46.8c-17.1,0-33,4.6-46.8,12.5c-13.8-8-29.8-12.5-46.8-12.5
	c0,17.1,4.6,33,12.5,46.8c-8,13.8-12.5,29.8-12.5,46.8c17.1,0,33-4.6,46.8-12.5C1597.9,55.4,1613.9,59.9,1631,59.9z M1724.6-33.7
	c0-17.1-4.6-33-12.5-46.8c8-13.8,12.5-29.8,12.5-46.8c-17.1,0-33,4.6-46.8,12.5c-13.8-8-29.8-12.5-46.8-12.5
	c0,17.1,4.6,33,12.5,46.8c-8,13.8-12.5,29.8-12.5,46.8c17.1,0,33-4.6,46.8-12.5C1691.6-38.3,1707.5-33.7,1724.6-33.7z M1724.6,59.9
	c0-17.1-4.6-33-12.5-46.8c8-13.8,12.5-29.8,12.5-46.8c-17.1,0-33,4.6-46.8,12.5c-13.8-8-29.8-12.5-46.8-12.5
	c0,17.1,4.6,33,12.5,46.8c-8,13.8-12.5,29.8-12.5,46.8c17.1,0,33-4.6,46.8-12.5C1691.6,55.4,1707.5,59.9,1724.6,59.9z M1443.7,153.8
	c0-17.1-4.6-33-12.5-46.8c8-13.8,12.5-29.8,12.5-46.8c-17.1,0-33,4.6-46.8,12.5c-13.8-8-29.8-12.5-46.8-12.5
	c0,17.1,4.6,33,12.5,46.8c-8,13.8-12.5,29.8-12.5,46.8c17.1,0,33-4.6,46.8-12.5C1410.6,149.3,1426.6,153.8,1443.7,153.8z
	 M1443.7,247.5c0-17.1-4.6-33-12.5-46.8c8-13.8,12.5-29.8,12.5-46.8c-17.1,0-33,4.6-46.8,12.5c-13.8-8-29.8-12.5-46.8-12.5
	c0,17.1,4.6,33,12.5,46.8c-8,13.8-12.5,29.8-12.5,46.8c17.1,0,33-4.6,46.8-12.5C1410.6,242.9,1426.6,247.5,1443.7,247.5z
	 M1443.7,341.1c0-17.1-4.6-33-12.5-46.8c8-13.8,12.5-29.8,12.5-46.8c-17.1,0-33,4.6-46.8,12.5c-13.8-8-29.8-12.5-46.8-12.5
	c0,17.1,4.6,33,12.5,46.8c-8,13.8-12.5,29.8-12.5,46.8c17.1,0,33-4.6,46.8-12.5C1410.6,336.6,1426.6,341.1,1443.7,341.1z
	 M1537.3,153.8c0-17.1-4.6-33-12.5-46.8c8-13.8,12.5-29.8,12.5-46.8c-17.1,0-33,4.6-46.8,12.5c-13.8-8-29.8-12.5-46.8-12.5
	c0,17.1,4.6,33,12.5,46.8c-8,13.8-12.5,29.8-12.5,46.8c17.1,0,33-4.6,46.8-12.5C1504.3,149.3,1520.2,153.8,1537.3,153.8z
	 M1537.3,247.5c0-17.1-4.6-33-12.5-46.8c8-13.8,12.5-29.8,12.5-46.8c-17.1,0-33,4.6-46.8,12.5c-13.8-8-29.8-12.5-46.8-12.5
	c0,17.1,4.6,33,12.5,46.8c-8,13.8-12.5,29.8-12.5,46.8c17.1,0,33-4.6,46.8-12.5C1504.3,242.9,1520.2,247.5,1537.3,247.5z
	 M1537.3,341.1c0-17.1-4.6-33-12.5-46.8c8-13.8,12.5-29.8,12.5-46.8c-17.1,0-33,4.6-46.8,12.5c-13.8-8-29.8-12.5-46.8-12.5
	c0,17.1,4.6,33,12.5,46.8c-8,13.8-12.5,29.8-12.5,46.8c17.1,0,33-4.6,46.8-12.5C1504.3,336.6,1520.2,341.1,1537.3,341.1z
	 M1631,153.8c0-17.1-4.6-33-12.5-46.8c8-13.8,12.5-29.8,12.5-46.8c-17.1,0-33,4.6-46.8,12.5c-13.8-8-29.8-12.5-46.8-12.5
	c0,17.1,4.6,33,12.5,46.8c-8,13.8-12.5,29.8-12.5,46.8c17.1,0,33-4.6,46.8-12.5C1597.9,149.3,1613.9,153.8,1631,153.8z M1631,247.5
	c0-17.1-4.6-33-12.5-46.8c8-13.8,12.5-29.8,12.5-46.8c-17.1,0-33,4.6-46.8,12.5c-13.8-8-29.8-12.5-46.8-12.5
	c0,17.1,4.6,33,12.5,46.8c-8,13.8-12.5,29.8-12.5,46.8c17.1,0,33-4.6,46.8-12.5C1597.9,242.9,1613.9,247.5,1631,247.5z M1631,341.1
	c0-17.1-4.6-33-12.5-46.8c8-13.8,12.5-29.8,12.5-46.8c-17.1,0-33,4.6-46.8,12.5c-13.8-8-29.8-12.5-46.8-12.5
	c0,17.1,4.6,33,12.5,46.8c-8,13.8-12.5,29.8-12.5,46.8c17.1,0,33-4.6,46.8-12.5C1597.9,336.6,1613.9,341.1,1631,341.1z
	 M1724.6,153.8c0-17.1-4.6-33-12.5-46.8c8-13.8,12.5-29.8,12.5-46.8c-17.1,0-33,4.6-46.8,12.5c-13.8-8-29.8-12.5-46.8-12.5
	c0,17.1,4.6,33,12.5,46.8c-8,13.8-12.5,29.8-12.5,46.8c17.1,0,33-4.6,46.8-12.5C1691.6,149.3,1707.5,153.8,1724.6,153.8z
	 M1724.6,247.5c0-17.1-4.6-33-12.5-46.8c8-13.8,12.5-29.8,12.5-46.8c-17.1,0-33,4.6-46.8,12.5c-13.8-8-29.8-12.5-46.8-12.5
	c0,17.1,4.6,33,12.5,46.8c-8,13.8-12.5,29.8-12.5,46.8c17.1,0,33-4.6,46.8-12.5C1691.6,242.9,1707.5,247.5,1724.6,247.5z
	 M1724.6,341.1c0-17.1-4.6-33-12.5-46.8c8-13.8,12.5-29.8,12.5-46.8c-17.1,0-33,4.6-46.8,12.5c-13.8-8-29.8-12.5-46.8-12.5
	c0,17.1,4.6,33,12.5,46.8c-8,13.8-12.5,29.8-12.5,46.8c17.1,0,33-4.6,46.8-12.5C1691.6,336.6,1707.5,341.1,1724.6,341.1z
	 M-56.3,434.3c0-17.1-4.6-33-12.5-46.8c8-13.8,12.5-29.8,12.5-46.8c-17.1,0-33,4.6-46.8,12.5c-13.8-8-29.8-12.5-46.8-12.5
	c0,17.1,4.6,33,12.5,46.8c-8,13.8-12.5,29.8-12.5,46.8c17.1,0,33-4.6,46.8-12.5C-89.4,429.7-73.4,434.3-56.3,434.3z M-56.3,527.9
	c0-17.1-4.6-33-12.5-46.8c8-13.8,12.5-29.8,12.5-46.8c-17.1,0-33,4.6-46.8,12.5c-13.8-8-29.8-12.5-46.8-12.5
	c0,17.1,4.6,33,12.5,46.8c-8,13.8-12.5,29.8-12.5,46.8c17.1,0,33-4.6,46.8-12.5C-89.4,523.4-73.4,527.9-56.3,527.9z M37.3,434.3
	c0-17.1-4.6-33-12.5-46.8c8-13.8,12.5-29.8,12.5-46.8c-17.1,0-33,4.6-46.8,12.5c-13.8-8-29.8-12.5-46.8-12.5
	c0,17.1,4.6,33,12.5,46.8c-8,13.8-12.5,29.8-12.5,46.8c17.1,0,33-4.6,46.8-12.5C4.3,429.7,20.2,434.3,37.3,434.3z M37.3,527.9
	c0-17.1-4.6-33-12.5-46.8c8-13.8,12.5-29.8,12.5-46.8c-17.1,0-33,4.6-46.8,12.5c-13.8-8-29.8-12.5-46.8-12.5
	c0,17.1,4.6,33,12.5,46.8c-8,13.8-12.5,29.8-12.5,46.8c17.1,0,33-4.6,46.8-12.5C4.3,523.4,20.2,527.9,37.3,527.9z M131,434.3
	c0-17.1-4.6-33-12.5-46.8c8-13.8,12.5-29.8,12.5-46.8c-17.1,0-33,4.6-46.8,12.5c-13.8-8-29.8-12.5-46.8-12.5
	c0,17.1,4.6,33,12.5,46.8c-8,13.8-12.5,29.8-12.5,46.8c17.1,0,33-4.6,46.8-12.5C97.9,429.7,113.9,434.3,131,434.3z M131,527.9
	c0-17.1-4.6-33-12.5-46.8c8-13.8,12.5-29.8,12.5-46.8c-17.1,0-33,4.6-46.8,12.5c-13.8-8-29.8-12.5-46.8-12.5
	c0,17.1,4.6,33,12.5,46.8c-8,13.8-12.5,29.8-12.5,46.8c17.1,0,33-4.6,46.8-12.5C97.9,523.4,113.9,527.9,131,527.9z M224.6,434.3
	c0-17.1-4.6-33-12.5-46.8c8-13.8,12.5-29.8,12.5-46.8c-17.1,0-33,4.6-46.8,12.5c-13.8-8-29.8-12.5-46.8-12.5
	c0,17.1,4.6,33,12.5,46.8c-8,13.8-12.5,29.8-12.5,46.8c17.1,0,33-4.6,46.8-12.5C191.6,429.7,207.5,434.3,224.6,434.3z M224.6,527.9
	c0-17.1-4.6-33-12.5-46.8c8-13.8,12.5-29.8,12.5-46.8c-17.1,0-33,4.6-46.8,12.5c-13.8-8-29.8-12.5-46.8-12.5
	c0,17.1,4.6,33,12.5,46.8c-8,13.8-12.5,29.8-12.5,46.8c17.1,0,33-4.6,46.8-12.5C191.6,523.4,207.5,527.9,224.6,527.9z M-56.3,621.8
	c0-17.1-4.6-33-12.5-46.8c8-13.8,12.5-29.8,12.5-46.8c-17.1,0-33,4.6-46.8,12.5c-13.8-8-29.8-12.5-46.8-12.5
	c0,17.1,4.6,33,12.5,46.8c-8,13.8-12.5,29.8-12.5,46.8c17.1,0,33-4.6,46.8-12.5C-89.4,617.3-73.4,621.8-56.3,621.8z M-56.3,715.5
	c0-17.1-4.6-33-12.5-46.8c8-13.8,12.5-29.8,12.5-46.8c-17.1,0-33,4.6-46.8,12.5c-13.8-8-29.8-12.5-46.8-12.5
	c0,17.1,4.6,33,12.5,46.8c-8,13.8-12.5,29.8-12.5,46.8c17.1,0,33-4.6,46.8-12.5C-89.4,710.9-73.4,715.5-56.3,715.5z M-56.3,809.1
	c0-17.1-4.6-33-12.5-46.8c8-13.8,12.5-29.8,12.5-46.8c-17.1,0-33,4.6-46.8,12.5c-13.8-8-29.8-12.5-46.8-12.5
	c0,17.1,4.6,33,12.5,46.8c-8,13.8-12.5,29.8-12.5,46.8c17.1,0,33-4.6,46.8-12.5C-89.4,804.6-73.4,809.1-56.3,809.1z M37.3,621.8
	c0-17.1-4.6-33-12.5-46.8c8-13.8,12.5-29.8,12.5-46.8c-17.1,0-33,4.6-46.8,12.5c-13.8-8-29.8-12.5-46.8-12.5
	c0,17.1,4.6,33,12.5,46.8c-8,13.8-12.5,29.8-12.5,46.8c17.1,0,33-4.6,46.8-12.5C4.3,617.3,20.2,621.8,37.3,621.8z M37.3,715.5
	c0-17.1-4.6-33-12.5-46.8c8-13.8,12.5-29.8,12.5-46.8c-17.1,0-33,4.6-46.8,12.5c-13.8-8-29.8-12.5-46.8-12.5
	c0,17.1,4.6,33,12.5,46.8c-8,13.8-12.5,29.8-12.5,46.8c17.1,0,33-4.6,46.8-12.5C4.3,710.9,20.2,715.5,37.3,715.5z M37.3,809.1
	c0-17.1-4.6-33-12.5-46.8c8-13.8,12.5-29.8,12.5-46.8c-17.1,0-33,4.6-46.8,12.5c-13.8-8-29.8-12.5-46.8-12.5
	c0,17.1,4.6,33,12.5,46.8c-8,13.8-12.5,29.8-12.5,46.8c17.1,0,33-4.6,46.8-12.5C4.3,804.6,20.2,809.1,37.3,809.1z M131,621.8
	c0-17.1-4.6-33-12.5-46.8c8-13.8,12.5-29.8,12.5-46.8c-17.1,0-33,4.6-46.8,12.5c-13.8-8-29.8-12.5-46.8-12.5
	c0,17.1,4.6,33,12.5,46.8c-8,13.8-12.5,29.8-12.5,46.8c17.1,0,33-4.6,46.8-12.5C97.9,617.3,113.9,621.8,131,621.8z M131,715.5
	c0-17.1-4.6-33-12.5-46.8c8-13.8,12.5-29.8,12.5-46.8c-17.1,0-33,4.6-46.8,12.5c-13.8-8-29.8-12.5-46.8-12.5
	c0,17.1,4.6,33,12.5,46.8c-8,13.8-12.5,29.8-12.5,46.8c17.1,0,33-4.6,46.8-12.5C97.9,710.9,113.9,715.5,131,715.5z M131,809.1
	c0-17.1-4.6-33-12.5-46.8c8-13.8,12.5-29.8,12.5-46.8c-17.1,0-33,4.6-46.8,12.5c-13.8-8-29.8-12.5-46.8-12.5
	c0,17.1,4.6,33,12.5,46.8c-8,13.8-12.5,29.8-12.5,46.8c17.1,0,33-4.6,46.8-12.5C97.9,804.6,113.9,809.1,131,809.1z M224.6,621.8
	c0-17.1-4.6-33-12.5-46.8c8-13.8,12.5-29.8,12.5-46.8c-17.1,0-33,4.6-46.8,12.5c-13.8-8-29.8-12.5-46.8-12.5
	c0,17.1,4.6,33,12.5,46.8c-8,13.8-12.5,29.8-12.5,46.8c17.1,0,33-4.6,46.8-12.5C191.6,617.3,207.5,621.8,224.6,621.8z M224.6,715.5
	c0-17.1-4.6-33-12.5-46.8c8-13.8,12.5-29.8,12.5-46.8c-17.1,0-33,4.6-46.8,12.5c-13.8-8-29.8-12.5-46.8-12.5
	c0,17.1,4.6,33,12.5,46.8c-8,13.8-12.5,29.8-12.5,46.8c17.1,0,33-4.6,46.8-12.5C191.6,710.9,207.5,715.5,224.6,715.5z M224.6,809.1
	c0-17.1-4.6-33-12.5-46.8c8-13.8,12.5-29.8,12.5-46.8c-17.1,0-33,4.6-46.8,12.5c-13.8-8-29.8-12.5-46.8-12.5
	c0,17.1,4.6,33,12.5,46.8c-8,13.8-12.5,29.8-12.5,46.8c17.1,0,33-4.6,46.8-12.5C191.6,804.6,207.5,809.1,224.6,809.1z M318.7,434.3
	c0-17.1-4.6-33-12.5-46.8c8-13.8,12.5-29.8,12.5-46.8c-17.1,0-33,4.6-46.8,12.5c-13.8-8-29.8-12.5-46.8-12.5
	c0,17.1,4.6,33,12.5,46.8c-8,13.8-12.5,29.8-12.5,46.8c17.1,0,33-4.6,46.8-12.5C285.6,429.7,301.6,434.3,318.7,434.3z M318.7,527.9
	c0-17.1-4.6-33-12.5-46.8c8-13.8,12.5-29.8,12.5-46.8c-17.1,0-33,4.6-46.8,12.5c-13.8-8-29.8-12.5-46.8-12.5
	c0,17.1,4.6,33,12.5,46.8c-8,13.8-12.5,29.8-12.5,46.8c17.1,0,33-4.6,46.8-12.5C285.6,523.4,301.6,527.9,318.7,527.9z M412.3,434.3
	c0-17.1-4.6-33-12.5-46.8c8-13.8,12.5-29.8,12.5-46.8c-17.1,0-33,4.6-46.8,12.5c-13.8-8-29.8-12.5-46.8-12.5
	c0,17.1,4.6,33,12.5,46.8c-8,13.8-12.5,29.8-12.5,46.8c17.1,0,33-4.6,46.8-12.5C379.3,429.7,395.2,434.3,412.3,434.3z M412.3,527.9
	c0-17.1-4.6-33-12.5-46.8c8-13.8,12.5-29.8,12.5-46.8c-17.1,0-33,4.6-46.8,12.5c-13.8-8-29.8-12.5-46.8-12.5
	c0,17.1,4.6,33,12.5,46.8c-8,13.8-12.5,29.8-12.5,46.8c17.1,0,33-4.6,46.8-12.5C379.3,523.4,395.2,527.9,412.3,527.9z M506,434.3
	c0-17.1-4.6-33-12.5-46.8c8-13.8,12.5-29.8,12.5-46.8c-17.1,0-33,4.6-46.8,12.5c-13.8-8-29.8-12.5-46.8-12.5
	c0,17.1,4.6,33,12.5,46.8c-8,13.8-12.5,29.8-12.5,46.8c17.1,0,33-4.6,46.8-12.5C472.9,429.7,488.9,434.3,506,434.3z M506,527.9
	c0-17.1-4.6-33-12.5-46.8c8-13.8,12.5-29.8,12.5-46.8c-17.1,0-33,4.6-46.8,12.5c-13.8-8-29.8-12.5-46.8-12.5
	c0,17.1,4.6,33,12.5,46.8c-8,13.8-12.5,29.8-12.5,46.8c17.1,0,33-4.6,46.8-12.5C472.9,523.4,488.9,527.9,506,527.9z M599.6,434.3
	c0-17.1-4.6-33-12.5-46.8c8-13.8,12.5-29.8,12.5-46.8c-17.1,0-33,4.6-46.8,12.5c-13.8-8-29.8-12.5-46.8-12.5
	c0,17.1,4.6,33,12.5,46.8c-8,13.8-12.5,29.8-12.5,46.8c17.1,0,33-4.6,46.8-12.5C566.6,429.7,582.5,434.3,599.6,434.3z M599.6,527.9
	c0-17.1-4.6-33-12.5-46.8c8-13.8,12.5-29.8,12.5-46.8c-17.1,0-33,4.6-46.8,12.5c-13.8-8-29.8-12.5-46.8-12.5
	c0,17.1,4.6,33,12.5,46.8c-8,13.8-12.5,29.8-12.5,46.8c17.1,0,33-4.6,46.8-12.5C566.6,523.4,582.5,527.9,599.6,527.9z M318.7,621.8
	c0-17.1-4.6-33-12.5-46.8c8-13.8,12.5-29.8,12.5-46.8c-17.1,0-33,4.6-46.8,12.5c-13.8-8-29.8-12.5-46.8-12.5
	c0,17.1,4.6,33,12.5,46.8c-8,13.8-12.5,29.8-12.5,46.8c17.1,0,33-4.6,46.8-12.5C285.6,617.3,301.6,621.8,318.7,621.8z M318.7,715.5
	c0-17.1-4.6-33-12.5-46.8c8-13.8,12.5-29.8,12.5-46.8c-17.1,0-33,4.6-46.8,12.5c-13.8-8-29.8-12.5-46.8-12.5
	c0,17.1,4.6,33,12.5,46.8c-8,13.8-12.5,29.8-12.5,46.8c17.1,0,33-4.6,46.8-12.5C285.6,710.9,301.6,715.5,318.7,715.5z M318.7,809.1
	c0-17.1-4.6-33-12.5-46.8c8-13.8,12.5-29.8,12.5-46.8c-17.1,0-33,4.6-46.8,12.5c-13.8-8-29.8-12.5-46.8-12.5
	c0,17.1,4.6,33,12.5,46.8c-8,13.8-12.5,29.8-12.5,46.8c17.1,0,33-4.6,46.8-12.5C285.6,804.6,301.6,809.1,318.7,809.1z M412.3,621.8
	c0-17.1-4.6-33-12.5-46.8c8-13.8,12.5-29.8,12.5-46.8c-17.1,0-33,4.6-46.8,12.5c-13.8-8-29.8-12.5-46.8-12.5
	c0,17.1,4.6,33,12.5,46.8c-8,13.8-12.5,29.8-12.5,46.8c17.1,0,33-4.6,46.8-12.5C379.3,617.3,395.2,621.8,412.3,621.8z M412.3,715.5
	c0-17.1-4.6-33-12.5-46.8c8-13.8,12.5-29.8,12.5-46.8c-17.1,0-33,4.6-46.8,12.5c-13.8-8-29.8-12.5-46.8-12.5
	c0,17.1,4.6,33,12.5,46.8c-8,13.8-12.5,29.8-12.5,46.8c17.1,0,33-4.6,46.8-12.5C379.3,710.9,395.2,715.5,412.3,715.5z M412.3,809.1
	c0-17.1-4.6-33-12.5-46.8c8-13.8,12.5-29.8,12.5-46.8c-17.1,0-33,4.6-46.8,12.5c-13.8-8-29.8-12.5-46.8-12.5
	c0,17.1,4.6,33,12.5,46.8c-8,13.8-12.5,29.8-12.5,46.8c17.1,0,33-4.6,46.8-12.5C379.3,804.6,395.2,809.1,412.3,809.1z M506,621.8
	c0-17.1-4.6-33-12.5-46.8c8-13.8,12.5-29.8,12.5-46.8c-17.1,0-33,4.6-46.8,12.5c-13.8-8-29.8-12.5-46.8-12.5
	c0,17.1,4.6,33,12.5,46.8c-8,13.8-12.5,29.8-12.5,46.8c17.1,0,33-4.6,46.8-12.5C472.9,617.3,488.9,621.8,506,621.8z M506,715.5
	c0-17.1-4.6-33-12.5-46.8c8-13.8,12.5-29.8,12.5-46.8c-17.1,0-33,4.6-46.8,12.5c-13.8-8-29.8-12.5-46.8-12.5
	c0,17.1,4.6,33,12.5,46.8c-8,13.8-12.5,29.8-12.5,46.8c17.1,0,33-4.6,46.8-12.5C472.9,710.9,488.9,715.5,506,715.5z M506,809.1
	c0-17.1-4.6-33-12.5-46.8c8-13.8,12.5-29.8,12.5-46.8c-17.1,0-33,4.6-46.8,12.5c-13.8-8-29.8-12.5-46.8-12.5
	c0,17.1,4.6,33,12.5,46.8c-8,13.8-12.5,29.8-12.5,46.8c17.1,0,33-4.6,46.8-12.5C472.9,804.6,488.9,809.1,506,809.1z M599.6,621.8
	c0-17.1-4.6-33-12.5-46.8c8-13.8,12.5-29.8,12.5-46.8c-17.1,0-33,4.6-46.8,12.5c-13.8-8-29.8-12.5-46.8-12.5
	c0,17.1,4.6,33,12.5,46.8c-8,13.8-12.5,29.8-12.5,46.8c17.1,0,33-4.6,46.8-12.5C566.6,617.3,582.5,621.8,599.6,621.8z M599.6,715.5
	c0-17.1-4.6-33-12.5-46.8c8-13.8,12.5-29.8,12.5-46.8c-17.1,0-33,4.6-46.8,12.5c-13.8-8-29.8-12.5-46.8-12.5
	c0,17.1,4.6,33,12.5,46.8c-8,13.8-12.5,29.8-12.5,46.8c17.1,0,33-4.6,46.8-12.5C566.6,710.9,582.5,715.5,599.6,715.5z M599.6,809.1
	c0-17.1-4.6-33-12.5-46.8c8-13.8,12.5-29.8,12.5-46.8c-17.1,0-33,4.6-46.8,12.5c-13.8-8-29.8-12.5-46.8-12.5
	c0,17.1,4.6,33,12.5,46.8c-8,13.8-12.5,29.8-12.5,46.8c17.1,0,33-4.6,46.8-12.5C566.6,804.6,582.5,809.1,599.6,809.1z M693.7,434.3
	c0-17.1-4.6-33-12.5-46.8c8-13.8,12.5-29.8,12.5-46.8c-17.1,0-33,4.6-46.8,12.5c-13.8-8-29.8-12.5-46.8-12.5
	c0,17.1,4.6,33,12.5,46.8c-8,13.8-12.5,29.8-12.5,46.8c17.1,0,33-4.6,46.8-12.5C660.6,429.7,676.6,434.3,693.7,434.3z M693.7,527.9
	c0-17.1-4.6-33-12.5-46.8c8-13.8,12.5-29.8,12.5-46.8c-17.1,0-33,4.6-46.8,12.5c-13.8-8-29.8-12.5-46.8-12.5
	c0,17.1,4.6,33,12.5,46.8c-8,13.8-12.5,29.8-12.5,46.8c17.1,0,33-4.6,46.8-12.5C660.6,523.4,676.6,527.9,693.7,527.9z M787.3,434.3
	c0-17.1-4.6-33-12.5-46.8c8-13.8,12.5-29.8,12.5-46.8c-17.1,0-33,4.6-46.8,12.5c-13.8-8-29.8-12.5-46.8-12.5
	c0,17.1,4.6,33,12.5,46.8c-8,13.8-12.5,29.8-12.5,46.8c17.1,0,33-4.6,46.8-12.5C754.3,429.7,770.2,434.3,787.3,434.3z M787.3,527.9
	c0-17.1-4.6-33-12.5-46.8c8-13.8,12.5-29.8,12.5-46.8c-17.1,0-33,4.6-46.8,12.5c-13.8-8-29.8-12.5-46.8-12.5
	c0,17.1,4.6,33,12.5,46.8c-8,13.8-12.5,29.8-12.5,46.8c17.1,0,33-4.6,46.8-12.5C754.3,523.4,770.2,527.9,787.3,527.9z M881,434.3
	c0-17.1-4.6-33-12.5-46.8c8-13.8,12.5-29.8,12.5-46.8c-17.1,0-33,4.6-46.8,12.5c-13.8-8-29.8-12.5-46.8-12.5
	c0,17.1,4.6,33,12.5,46.8c-8,13.8-12.5,29.8-12.5,46.8c17.1,0,33-4.6,46.8-12.5C847.9,429.7,863.9,434.3,881,434.3z M881,527.9
	c0-17.1-4.6-33-12.5-46.8c8-13.8,12.5-29.8,12.5-46.8c-17.1,0-33,4.6-46.8,12.5c-13.8-8-29.8-12.5-46.8-12.5
	c0,17.1,4.6,33,12.5,46.8c-8,13.8-12.5,29.8-12.5,46.8c17.1,0,33-4.6,46.8-12.5C847.9,523.4,863.9,527.9,881,527.9z M974.6,434.3
	c0-17.1-4.6-33-12.5-46.8c8-13.8,12.5-29.8,12.5-46.8c-17.1,0-33,4.6-46.8,12.5c-13.8-8-29.8-12.5-46.8-12.5
	c0,17.1,4.6,33,12.5,46.8c-8,13.8-12.5,29.8-12.5,46.8c17.1,0,33-4.6,46.8-12.5C941.6,429.7,957.5,434.3,974.6,434.3z M974.6,527.9
	c0-17.1-4.6-33-12.5-46.8c8-13.8,12.5-29.8,12.5-46.8c-17.1,0-33,4.6-46.8,12.5c-13.8-8-29.8-12.5-46.8-12.5
	c0,17.1,4.6,33,12.5,46.8c-8,13.8-12.5,29.8-12.5,46.8c17.1,0,33-4.6,46.8-12.5C941.6,523.4,957.5,527.9,974.6,527.9z M693.7,621.8
	c0-17.1-4.6-33-12.5-46.8c8-13.8,12.5-29.8,12.5-46.8c-17.1,0-33,4.6-46.8,12.5c-13.8-8-29.8-12.5-46.8-12.5
	c0,17.1,4.6,33,12.5,46.8c-8,13.8-12.5,29.8-12.5,46.8c17.1,0,33-4.6,46.8-12.5C660.6,617.3,676.6,621.8,693.7,621.8z M693.7,715.5
	c0-17.1-4.6-33-12.5-46.8c8-13.8,12.5-29.8,12.5-46.8c-17.1,0-33,4.6-46.8,12.5c-13.8-8-29.8-12.5-46.8-12.5
	c0,17.1,4.6,33,12.5,46.8c-8,13.8-12.5,29.8-12.5,46.8c17.1,0,33-4.6,46.8-12.5C660.6,710.9,676.6,715.5,693.7,715.5z M693.7,809.1
	c0-17.1-4.6-33-12.5-46.8c8-13.8,12.5-29.8,12.5-46.8c-17.1,0-33,4.6-46.8,12.5c-13.8-8-29.8-12.5-46.8-12.5
	c0,17.1,4.6,33,12.5,46.8c-8,13.8-12.5,29.8-12.5,46.8c17.1,0,33-4.6,46.8-12.5C660.6,804.6,676.6,809.1,693.7,809.1z M787.3,621.8
	c0-17.1-4.6-33-12.5-46.8c8-13.8,12.5-29.8,12.5-46.8c-17.1,0-33,4.6-46.8,12.5c-13.8-8-29.8-12.5-46.8-12.5
	c0,17.1,4.6,33,12.5,46.8c-8,13.8-12.5,29.8-12.5,46.8c17.1,0,33-4.6,46.8-12.5C754.3,617.3,770.2,621.8,787.3,621.8z M787.3,715.5
	c0-17.1-4.6-33-12.5-46.8c8-13.8,12.5-29.8,12.5-46.8c-17.1,0-33,4.6-46.8,12.5c-13.8-8-29.8-12.5-46.8-12.5
	c0,17.1,4.6,33,12.5,46.8c-8,13.8-12.5,29.8-12.5,46.8c17.1,0,33-4.6,46.8-12.5C754.3,710.9,770.2,715.5,787.3,715.5z M787.3,809.1
	c0-17.1-4.6-33-12.5-46.8c8-13.8,12.5-29.8,12.5-46.8c-17.1,0-33,4.6-46.8,12.5c-13.8-8-29.8-12.5-46.8-12.5
	c0,17.1,4.6,33,12.5,46.8c-8,13.8-12.5,29.8-12.5,46.8c17.1,0,33-4.6,46.8-12.5C754.3,804.6,770.2,809.1,787.3,809.1z M881,621.8
	c0-17.1-4.6-33-12.5-46.8c8-13.8,12.5-29.8,12.5-46.8c-17.1,0-33,4.6-46.8,12.5c-13.8-8-29.8-12.5-46.8-12.5
	c0,17.1,4.6,33,12.5,46.8c-8,13.8-12.5,29.8-12.5,46.8c17.1,0,33-4.6,46.8-12.5C847.9,617.3,863.9,621.8,881,621.8z M881,715.5
	c0-17.1-4.6-33-12.5-46.8c8-13.8,12.5-29.8,12.5-46.8c-17.1,0-33,4.6-46.8,12.5c-13.8-8-29.8-12.5-46.8-12.5
	c0,17.1,4.6,33,12.5,46.8c-8,13.8-12.5,29.8-12.5,46.8c17.1,0,33-4.6,46.8-12.5C847.9,710.9,863.9,715.5,881,715.5z M881,809.1
	c0-17.1-4.6-33-12.5-46.8c8-13.8,12.5-29.8,12.5-46.8c-17.1,0-33,4.6-46.8,12.5c-13.8-8-29.8-12.5-46.8-12.5
	c0,17.1,4.6,33,12.5,46.8c-8,13.8-12.5,29.8-12.5,46.8c17.1,0,33-4.6,46.8-12.5C847.9,804.6,863.9,809.1,881,809.1z M974.6,621.8
	c0-17.1-4.6-33-12.5-46.8c8-13.8,12.5-29.8,12.5-46.8c-17.1,0-33,4.6-46.8,12.5c-13.8-8-29.8-12.5-46.8-12.5
	c0,17.1,4.6,33,12.5,46.8c-8,13.8-12.5,29.8-12.5,46.8c17.1,0,33-4.6,46.8-12.5C941.6,617.3,957.5,621.8,974.6,621.8z M974.6,715.5
	c0-17.1-4.6-33-12.5-46.8c8-13.8,12.5-29.8,12.5-46.8c-17.1,0-33,4.6-46.8,12.5c-13.8-8-29.8-12.5-46.8-12.5
	c0,17.1,4.6,33,12.5,46.8c-8,13.8-12.5,29.8-12.5,46.8c17.1,0,33-4.6,46.8-12.5C941.6,710.9,957.5,715.5,974.6,715.5z M974.6,809.1
	c0-17.1-4.6-33-12.5-46.8c8-13.8,12.5-29.8,12.5-46.8c-17.1,0-33,4.6-46.8,12.5c-13.8-8-29.8-12.5-46.8-12.5
	c0,17.1,4.6,33,12.5,46.8c-8,13.8-12.5,29.8-12.5,46.8c17.1,0,33-4.6,46.8-12.5C941.6,804.6,957.5,809.1,974.6,809.1z M1068.7,434.3
	c0-17.1-4.6-33-12.5-46.8c8-13.8,12.5-29.8,12.5-46.8c-17.1,0-33,4.6-46.8,12.5c-13.8-8-29.8-12.5-46.8-12.5
	c0,17.1,4.6,33,12.5,46.8c-8,13.8-12.5,29.8-12.5,46.8c17.1,0,33-4.6,46.8-12.5C1035.6,429.7,1051.6,434.3,1068.7,434.3z
	 M1068.7,527.9c0-17.1-4.6-33-12.5-46.8c8-13.8,12.5-29.8,12.5-46.8c-17.1,0-33,4.6-46.8,12.5c-13.8-8-29.8-12.5-46.8-12.5
	c0,17.1,4.6,33,12.5,46.8c-8,13.8-12.5,29.8-12.5,46.8c17.1,0,33-4.6,46.8-12.5C1035.6,523.4,1051.6,527.9,1068.7,527.9z
	 M1162.3,434.3c0-17.1-4.6-33-12.5-46.8c8-13.8,12.5-29.8,12.5-46.8c-17.1,0-33,4.6-46.8,12.5c-13.8-8-29.8-12.5-46.8-12.5
	c0,17.1,4.6,33,12.5,46.8c-8,13.8-12.5,29.8-12.5,46.8c17.1,0,33-4.6,46.8-12.5C1129.3,429.7,1145.2,434.3,1162.3,434.3z
	 M1162.3,527.9c0-17.1-4.6-33-12.5-46.8c8-13.8,12.5-29.8,12.5-46.8c-17.1,0-33,4.6-46.8,12.5c-13.8-8-29.8-12.5-46.8-12.5
	c0,17.1,4.6,33,12.5,46.8c-8,13.8-12.5,29.8-12.5,46.8c17.1,0,33-4.6,46.8-12.5C1129.3,523.4,1145.2,527.9,1162.3,527.9z
	 M1256,434.3c0-17.1-4.6-33-12.5-46.8c8-13.8,12.5-29.8,12.5-46.8c-17.1,0-33,4.6-46.8,12.5c-13.8-8-29.8-12.5-46.8-12.5
	c0,17.1,4.6,33,12.5,46.8c-8,13.8-12.5,29.8-12.5,46.8c17.1,0,33-4.6,46.8-12.5C1222.9,429.7,1238.9,434.3,1256,434.3z M1256,527.9
	c0-17.1-4.6-33-12.5-46.8c8-13.8,12.5-29.8,12.5-46.8c-17.1,0-33,4.6-46.8,12.5c-13.8-8-29.8-12.5-46.8-12.5
	c0,17.1,4.6,33,12.5,46.8c-8,13.8-12.5,29.8-12.5,46.8c17.1,0,33-4.6,46.8-12.5C1222.9,523.4,1238.9,527.9,1256,527.9z
	 M1349.6,434.3c0-17.1-4.6-33-12.5-46.8c8-13.8,12.5-29.8,12.5-46.8c-17.1,0-33,4.6-46.8,12.5c-13.8-8-29.8-12.5-46.8-12.5
	c0,17.1,4.6,33,12.5,46.8c-8,13.8-12.5,29.8-12.5,46.8c17.1,0,33-4.6,46.8-12.5C1316.6,429.7,1332.5,434.3,1349.6,434.3z
	 M1349.6,527.9c0-17.1-4.6-33-12.5-46.8c8-13.8,12.5-29.8,12.5-46.8c-17.1,0-33,4.6-46.8,12.5c-13.8-8-29.8-12.5-46.8-12.5
	c0,17.1,4.6,33,12.5,46.8c-8,13.8-12.5,29.8-12.5,46.8c17.1,0,33-4.6,46.8-12.5C1316.6,523.4,1332.5,527.9,1349.6,527.9z
	 M1068.7,621.8c0-17.1-4.6-33-12.5-46.8c8-13.8,12.5-29.8,12.5-46.8c-17.1,0-33,4.6-46.8,12.5c-13.8-8-29.8-12.5-46.8-12.5
	c0,17.1,4.6,33,12.5,46.8c-8,13.8-12.5,29.8-12.5,46.8c17.1,0,33-4.6,46.8-12.5C1035.6,617.3,1051.6,621.8,1068.7,621.8z
	 M1068.7,715.5c0-17.1-4.6-33-12.5-46.8c8-13.8,12.5-29.8,12.5-46.8c-17.1,0-33,4.6-46.8,12.5c-13.8-8-29.8-12.5-46.8-12.5
	c0,17.1,4.6,33,12.5,46.8c-8,13.8-12.5,29.8-12.5,46.8c17.1,0,33-4.6,46.8-12.5C1035.6,710.9,1051.6,715.5,1068.7,715.5z
	 M1068.7,809.1c0-17.1-4.6-33-12.5-46.8c8-13.8,12.5-29.8,12.5-46.8c-17.1,0-33,4.6-46.8,12.5c-13.8-8-29.8-12.5-46.8-12.5
	c0,17.1,4.6,33,12.5,46.8c-8,13.8-12.5,29.8-12.5,46.8c17.1,0,33-4.6,46.8-12.5C1035.6,804.6,1051.6,809.1,1068.7,809.1z
	 M1162.3,621.8c0-17.1-4.6-33-12.5-46.8c8-13.8,12.5-29.8,12.5-46.8c-17.1,0-33,4.6-46.8,12.5c-13.8-8-29.8-12.5-46.8-12.5
	c0,17.1,4.6,33,12.5,46.8c-8,13.8-12.5,29.8-12.5,46.8c17.1,0,33-4.6,46.8-12.5C1129.3,617.3,1145.2,621.8,1162.3,621.8z
	 M1162.3,715.5c0-17.1-4.6-33-12.5-46.8c8-13.8,12.5-29.8,12.5-46.8c-17.1,0-33,4.6-46.8,12.5c-13.8-8-29.8-12.5-46.8-12.5
	c0,17.1,4.6,33,12.5,46.8c-8,13.8-12.5,29.8-12.5,46.8c17.1,0,33-4.6,46.8-12.5C1129.3,710.9,1145.2,715.5,1162.3,715.5z
	 M1162.3,809.1c0-17.1-4.6-33-12.5-46.8c8-13.8,12.5-29.8,12.5-46.8c-17.1,0-33,4.6-46.8,12.5c-13.8-8-29.8-12.5-46.8-12.5
	c0,17.1,4.6,33,12.5,46.8c-8,13.8-12.5,29.8-12.5,46.8c17.1,0,33-4.6,46.8-12.5C1129.3,804.6,1145.2,809.1,1162.3,809.1z
	 M1256,621.8c0-17.1-4.6-33-12.5-46.8c8-13.8,12.5-29.8,12.5-46.8c-17.1,0-33,4.6-46.8,12.5c-13.8-8-29.8-12.5-46.8-12.5
	c0,17.1,4.6,33,12.5,46.8c-8,13.8-12.5,29.8-12.5,46.8c17.1,0,33-4.6,46.8-12.5C1222.9,617.3,1238.9,621.8,1256,621.8z M1256,715.5
	c0-17.1-4.6-33-12.5-46.8c8-13.8,12.5-29.8,12.5-46.8c-17.1,0-33,4.6-46.8,12.5c-13.8-8-29.8-12.5-46.8-12.5
	c0,17.1,4.6,33,12.5,46.8c-8,13.8-12.5,29.8-12.5,46.8c17.1,0,33-4.6,46.8-12.5C1222.9,710.9,1238.9,715.5,1256,715.5z M1256,809.1
	c0-17.1-4.6-33-12.5-46.8c8-13.8,12.5-29.8,12.5-46.8c-17.1,0-33,4.6-46.8,12.5c-13.8-8-29.8-12.5-46.8-12.5
	c0,17.1,4.6,33,12.5,46.8c-8,13.8-12.5,29.8-12.5,46.8c17.1,0,33-4.6,46.8-12.5C1222.9,804.6,1238.9,809.1,1256,809.1z
	 M1349.6,621.8c0-17.1-4.6-33-12.5-46.8c8-13.8,12.5-29.8,12.5-46.8c-17.1,0-33,4.6-46.8,12.5c-13.8-8-29.8-12.5-46.8-12.5
	c0,17.1,4.6,33,12.5,46.8c-8,13.8-12.5,29.8-12.5,46.8c17.1,0,33-4.6,46.8-12.5C1316.6,617.3,1332.5,621.8,1349.6,621.8z
	 M1349.6,715.5c0-17.1-4.6-33-12.5-46.8c8-13.8,12.5-29.8,12.5-46.8c-17.1,0-33,4.6-46.8,12.5c-13.8-8-29.8-12.5-46.8-12.5
	c0,17.1,4.6,33,12.5,46.8c-8,13.8-12.5,29.8-12.5,46.8c17.1,0,33-4.6,46.8-12.5C1316.6,710.9,1332.5,715.5,1349.6,715.5z
	 M1349.6,809.1c0-17.1-4.6-33-12.5-46.8c8-13.8,12.5-29.8,12.5-46.8c-17.1,0-33,4.6-46.8,12.5c-13.8-8-29.8-12.5-46.8-12.5
	c0,17.1,4.6,33,12.5,46.8c-8,13.8-12.5,29.8-12.5,46.8c17.1,0,33-4.6,46.8-12.5C1316.6,804.6,1332.5,809.1,1349.6,809.1z
	 M1443.7,434.3c0-17.1-4.6-33-12.5-46.8c8-13.8,12.5-29.8,12.5-46.8c-17.1,0-33,4.6-46.8,12.5c-13.8-8-29.8-12.5-46.8-12.5
	c0,17.1,4.6,33,12.5,46.8c-8,13.8-12.5,29.8-12.5,46.8c17.1,0,33-4.6,46.8-12.5C1410.6,429.7,1426.6,434.3,1443.7,434.3z
	 M1443.7,527.9c0-17.1-4.6-33-12.5-46.8c8-13.8,12.5-29.8,12.5-46.8c-17.1,0-33,4.6-46.8,12.5c-13.8-8-29.8-12.5-46.8-12.5
	c0,17.1,4.6,33,12.5,46.8c-8,13.8-12.5,29.8-12.5,46.8c17.1,0,33-4.6,46.8-12.5C1410.6,523.4,1426.6,527.9,1443.7,527.9z
	 M1537.3,434.3c0-17.1-4.6-33-12.5-46.8c8-13.8,12.5-29.8,12.5-46.8c-17.1,0-33,4.6-46.8,12.5c-13.8-8-29.8-12.5-46.8-12.5
	c0,17.1,4.6,33,12.5,46.8c-8,13.8-12.5,29.8-12.5,46.8c17.1,0,33-4.6,46.8-12.5C1504.3,429.7,1520.2,434.3,1537.3,434.3z
	 M1537.3,527.9c0-17.1-4.6-33-12.5-46.8c8-13.8,12.5-29.8,12.5-46.8c-17.1,0-33,4.6-46.8,12.5c-13.8-8-29.8-12.5-46.8-12.5
	c0,17.1,4.6,33,12.5,46.8c-8,13.8-12.5,29.8-12.5,46.8c17.1,0,33-4.6,46.8-12.5C1504.3,523.4,1520.2,527.9,1537.3,527.9z
	 M1631,434.3c0-17.1-4.6-33-12.5-46.8c8-13.8,12.5-29.8,12.5-46.8c-17.1,0-33,4.6-46.8,12.5c-13.8-8-29.8-12.5-46.8-12.5
	c0,17.1,4.6,33,12.5,46.8c-8,13.8-12.5,29.8-12.5,46.8c17.1,0,33-4.6,46.8-12.5C1597.9,429.7,1613.9,434.3,1631,434.3z M1631,527.9
	c0-17.1-4.6-33-12.5-46.8c8-13.8,12.5-29.8,12.5-46.8c-17.1,0-33,4.6-46.8,12.5c-13.8-8-29.8-12.5-46.8-12.5
	c0,17.1,4.6,33,12.5,46.8c-8,13.8-12.5,29.8-12.5,46.8c17.1,0,33-4.6,46.8-12.5C1597.9,523.4,1613.9,527.9,1631,527.9z
	 M1724.6,434.3c0-17.1-4.6-33-12.5-46.8c8-13.8,12.5-29.8,12.5-46.8c-17.1,0-33,4.6-46.8,12.5c-13.8-8-29.8-12.5-46.8-12.5
	c0,17.1,4.6,33,12.5,46.8c-8,13.8-12.5,29.8-12.5,46.8c17.1,0,33-4.6,46.8-12.5C1691.6,429.7,1707.5,434.3,1724.6,434.3z
	 M1724.6,527.9c0-17.1-4.6-33-12.5-46.8c8-13.8,12.5-29.8,12.5-46.8c-17.1,0-33,4.6-46.8,12.5c-13.8-8-29.8-12.5-46.8-12.5
	c0,17.1,4.6,33,12.5,46.8c-8,13.8-12.5,29.8-12.5,46.8c17.1,0,33-4.6,46.8-12.5C1691.6,523.4,1707.5,527.9,1724.6,527.9z
	 M1443.7,621.8c0-17.1-4.6-33-12.5-46.8c8-13.8,12.5-29.8,12.5-46.8c-17.1,0-33,4.6-46.8,12.5c-13.8-8-29.8-12.5-46.8-12.5
	c0,17.1,4.6,33,12.5,46.8c-8,13.8-12.5,29.8-12.5,46.8c17.1,0,33-4.6,46.8-12.5C1410.6,617.3,1426.6,621.8,1443.7,621.8z
	 M1443.7,715.5c0-17.1-4.6-33-12.5-46.8c8-13.8,12.5-29.8,12.5-46.8c-17.1,0-33,4.6-46.8,12.5c-13.8-8-29.8-12.5-46.8-12.5
	c0,17.1,4.6,33,12.5,46.8c-8,13.8-12.5,29.8-12.5,46.8c17.1,0,33-4.6,46.8-12.5C1410.6,710.9,1426.6,715.5,1443.7,715.5z
	 M1443.7,809.1c0-17.1-4.6-33-12.5-46.8c8-13.8,12.5-29.8,12.5-46.8c-17.1,0-33,4.6-46.8,12.5c-13.8-8-29.8-12.5-46.8-12.5
	c0,17.1,4.6,33,12.5,46.8c-8,13.8-12.5,29.8-12.5,46.8c17.1,0,33-4.6,46.8-12.5C1410.6,804.6,1426.6,809.1,1443.7,809.1z
	 M1537.3,621.8c0-17.1-4.6-33-12.5-46.8c8-13.8,12.5-29.8,12.5-46.8c-17.1,0-33,4.6-46.8,12.5c-13.8-8-29.8-12.5-46.8-12.5
	c0,17.1,4.6,33,12.5,46.8c-8,13.8-12.5,29.8-12.5,46.8c17.1,0,33-4.6,46.8-12.5C1504.3,617.3,1520.2,621.8,1537.3,621.8z
	 M1537.3,715.5c0-17.1-4.6-33-12.5-46.8c8-13.8,12.5-29.8,12.5-46.8c-17.1,0-33,4.6-46.8,12.5c-13.8-8-29.8-12.5-46.8-12.5
	c0,17.1,4.6,33,12.5,46.8c-8,13.8-12.5,29.8-12.5,46.8c17.1,0,33-4.6,46.8-12.5C1504.3,710.9,1520.2,715.5,1537.3,715.5z
	 M1537.3,809.1c0-17.1-4.6-33-12.5-46.8c8-13.8,12.5-29.8,12.5-46.8c-17.1,0-33,4.6-46.8,12.5c-13.8-8-29.8-12.5-46.8-12.5
	c0,17.1,4.6,33,12.5,46.8c-8,13.8-12.5,29.8-12.5,46.8c17.1,0,33-4.6,46.8-12.5C1504.3,804.6,1520.2,809.1,1537.3,809.1z
	 M1631,621.8c0-17.1-4.6-33-12.5-46.8c8-13.8,12.5-29.8,12.5-46.8c-17.1,0-33,4.6-46.8,12.5c-13.8-8-29.8-12.5-46.8-12.5
	c0,17.1,4.6,33,12.5,46.8c-8,13.8-12.5,29.8-12.5,46.8c17.1,0,33-4.6,46.8-12.5C1597.9,617.3,1613.9,621.8,1631,621.8z M1631,715.5
	c0-17.1-4.6-33-12.5-46.8c8-13.8,12.5-29.8,12.5-46.8c-17.1,0-33,4.6-46.8,12.5c-13.8-8-29.8-12.5-46.8-12.5
	c0,17.1,4.6,33,12.5,46.8c-8,13.8-12.5,29.8-12.5,46.8c17.1,0,33-4.6,46.8-12.5C1597.9,710.9,1613.9,715.5,1631,715.5z M1631,809.1
	c0-17.1-4.6-33-12.5-46.8c8-13.8,12.5-29.8,12.5-46.8c-17.1,0-33,4.6-46.8,12.5c-13.8-8-29.8-12.5-46.8-12.5
	c0,17.1,4.6,33,12.5,46.8c-8,13.8-12.5,29.8-12.5,46.8c17.1,0,33-4.6,46.8-12.5C1597.9,804.6,1613.9,809.1,1631,809.1z
	 M1724.6,621.8c0-17.1-4.6-33-12.5-46.8c8-13.8,12.5-29.8,12.5-46.8c-17.1,0-33,4.6-46.8,12.5c-13.8-8-29.8-12.5-46.8-12.5
	c0,17.1,4.6,33,12.5,46.8c-8,13.8-12.5,29.8-12.5,46.8c17.1,0,33-4.6,46.8-12.5C1691.6,617.3,1707.5,621.8,1724.6,621.8z
	 M1724.6,715.5c0-17.1-4.6-33-12.5-46.8c8-13.8,12.5-29.8,12.5-46.8c-17.1,0-33,4.6-46.8,12.5c-13.8-8-29.8-12.5-46.8-12.5
	c0,17.1,4.6,33,12.5,46.8c-8,13.8-12.5,29.8-12.5,46.8c17.1,0,33-4.6,46.8-12.5C1691.6,710.9,1707.5,715.5,1724.6,715.5z
	 M1724.6,809.1c0-17.1-4.6-33-12.5-46.8c8-13.8,12.5-29.8,12.5-46.8c-17.1,0-33,4.6-46.8,12.5c-13.8-8-29.8-12.5-46.8-12.5
	c0,17.1,4.6,33,12.5,46.8c-8,13.8-12.5,29.8-12.5,46.8c17.1,0,33-4.6,46.8-12.5C1691.6,804.6,1707.5,809.1,1724.6,809.1z
	 M-56.3,902.3c0-17.1-4.6-33-12.5-46.8c8-13.8,12.5-29.8,12.5-46.8c-17.1,0-33,4.6-46.8,12.5c-13.8-8-29.8-12.5-46.8-12.5
	c0,17.1,4.6,33,12.5,46.8c-8,13.8-12.5,29.8-12.5,46.8c17.1,0,33-4.6,46.8-12.5C-89.4,897.7-73.4,902.3-56.3,902.3z M-56.3,995.9
	c0-17.1-4.6-33-12.5-46.8c8-13.8,12.5-29.8,12.5-46.8c-17.1,0-33,4.6-46.8,12.5c-13.8-8-29.8-12.5-46.8-12.5
	c0,17.1,4.6,33,12.5,46.8c-8,13.8-12.5,29.8-12.5,46.8c17.1,0,33-4.6,46.8-12.5C-89.4,991.4-73.4,995.9-56.3,995.9z M37.3,902.3
	c0-17.1-4.6-33-12.5-46.8c8-13.8,12.5-29.8,12.5-46.8c-17.1,0-33,4.6-46.8,12.5c-13.8-8-29.8-12.5-46.8-12.5
	c0,17.1,4.6,33,12.5,46.8c-8,13.8-12.5,29.8-12.5,46.8c17.1,0,33-4.6,46.8-12.5C4.3,897.7,20.2,902.3,37.3,902.3z M37.3,995.9
	c0-17.1-4.6-33-12.5-46.8c8-13.8,12.5-29.8,12.5-46.8c-17.1,0-33,4.6-46.8,12.5c-13.8-8-29.8-12.5-46.8-12.5
	c0,17.1,4.6,33,12.5,46.8c-8,13.8-12.5,29.8-12.5,46.8c17.1,0,33-4.6,46.8-12.5C4.3,991.4,20.2,995.9,37.3,995.9z M131,902.3
	c0-17.1-4.6-33-12.5-46.8c8-13.8,12.5-29.8,12.5-46.8c-17.1,0-33,4.6-46.8,12.5c-13.8-8-29.8-12.5-46.8-12.5
	c0,17.1,4.6,33,12.5,46.8c-8,13.8-12.5,29.8-12.5,46.8c17.1,0,33-4.6,46.8-12.5C97.9,897.7,113.9,902.3,131,902.3z M131,995.9
	c0-17.1-4.6-33-12.5-46.8c8-13.8,12.5-29.8,12.5-46.8c-17.1,0-33,4.6-46.8,12.5c-13.8-8-29.8-12.5-46.8-12.5
	c0,17.1,4.6,33,12.5,46.8c-8,13.8-12.5,29.8-12.5,46.8c17.1,0,33-4.6,46.8-12.5C97.9,991.4,113.9,995.9,131,995.9z M224.6,902.3
	c0-17.1-4.6-33-12.5-46.8c8-13.8,12.5-29.8,12.5-46.8c-17.1,0-33,4.6-46.8,12.5c-13.8-8-29.8-12.5-46.8-12.5
	c0,17.1,4.6,33,12.5,46.8c-8,13.8-12.5,29.8-12.5,46.8c17.1,0,33-4.6,46.8-12.5C191.6,897.7,207.5,902.3,224.6,902.3z M224.6,995.9
	c0-17.1-4.6-33-12.5-46.8c8-13.8,12.5-29.8,12.5-46.8c-17.1,0-33,4.6-46.8,12.5c-13.8-8-29.8-12.5-46.8-12.5
	c0,17.1,4.6,33,12.5,46.8c-8,13.8-12.5,29.8-12.5,46.8c17.1,0,33-4.6,46.8-12.5C191.6,991.4,207.5,995.9,224.6,995.9z M-56.3,1089.8
	c0-17.1-4.6-33-12.5-46.8c8-13.8,12.5-29.8,12.5-46.8c-17.1,0-33,4.6-46.8,12.5c-13.8-8-29.8-12.5-46.8-12.5
	c0,17.1,4.6,33,12.5,46.8c-8,13.8-12.5,29.8-12.5,46.8c17.1,0,33-4.6,46.8-12.5C-89.4,1085.3-73.4,1089.8-56.3,1089.8z
	 M-56.3,1183.5c0-17.1-4.6-33-12.5-46.8c8-13.8,12.5-29.8,12.5-46.8c-17.1,0-33,4.6-46.8,12.5c-13.8-8-29.8-12.5-46.8-12.5
	c0,17.1,4.6,33,12.5,46.8c-8,13.8-12.5,29.8-12.5,46.8c17.1,0,33-4.6,46.8-12.5C-89.4,1178.9-73.4,1183.5-56.3,1183.5z
	 M-56.3,1277.1c0-17.1-4.6-33-12.5-46.8c8-13.8,12.5-29.8,12.5-46.8c-17.1,0-33,4.6-46.8,12.5c-13.8-8-29.8-12.5-46.8-12.5
	c0,17.1,4.6,33,12.5,46.8c-8,13.8-12.5,29.8-12.5,46.8c17.1,0,33-4.6,46.8-12.5C-89.4,1272.6-73.4,1277.1-56.3,1277.1z M37.3,1089.8
	c0-17.1-4.6-33-12.5-46.8c8-13.8,12.5-29.8,12.5-46.8c-17.1,0-33,4.6-46.8,12.5c-13.8-8-29.8-12.5-46.8-12.5
	c0,17.1,4.6,33,12.5,46.8c-8,13.8-12.5,29.8-12.5,46.8c17.1,0,33-4.6,46.8-12.5C4.3,1085.3,20.2,1089.8,37.3,1089.8z M37.3,1183.5
	c0-17.1-4.6-33-12.5-46.8c8-13.8,12.5-29.8,12.5-46.8c-17.1,0-33,4.6-46.8,12.5c-13.8-8-29.8-12.5-46.8-12.5
	c0,17.1,4.6,33,12.5,46.8c-8,13.8-12.5,29.8-12.5,46.8c17.1,0,33-4.6,46.8-12.5C4.3,1178.9,20.2,1183.5,37.3,1183.5z M37.3,1277.1
	c0-17.1-4.6-33-12.5-46.8c8-13.8,12.5-29.8,12.5-46.8c-17.1,0-33,4.6-46.8,12.5c-13.8-8-29.8-12.5-46.8-12.5
	c0,17.1,4.6,33,12.5,46.8c-8,13.8-12.5,29.8-12.5,46.8c17.1,0,33-4.6,46.8-12.5C4.3,1272.6,20.2,1277.1,37.3,1277.1z M131,1089.8
	c0-17.1-4.6-33-12.5-46.8c8-13.8,12.5-29.8,12.5-46.8c-17.1,0-33,4.6-46.8,12.5c-13.8-8-29.8-12.5-46.8-12.5
	c0,17.1,4.6,33,12.5,46.8c-8,13.8-12.5,29.8-12.5,46.8c17.1,0,33-4.6,46.8-12.5C97.9,1085.3,113.9,1089.8,131,1089.8z M131,1183.5
	c0-17.1-4.6-33-12.5-46.8c8-13.8,12.5-29.8,12.5-46.8c-17.1,0-33,4.6-46.8,12.5c-13.8-8-29.8-12.5-46.8-12.5
	c0,17.1,4.6,33,12.5,46.8c-8,13.8-12.5,29.8-12.5,46.8c17.1,0,33-4.6,46.8-12.5C97.9,1178.9,113.9,1183.5,131,1183.5z M131,1277.1
	c0-17.1-4.6-33-12.5-46.8c8-13.8,12.5-29.8,12.5-46.8c-17.1,0-33,4.6-46.8,12.5c-13.8-8-29.8-12.5-46.8-12.5
	c0,17.1,4.6,33,12.5,46.8c-8,13.8-12.5,29.8-12.5,46.8c17.1,0,33-4.6,46.8-12.5C97.9,1272.6,113.9,1277.1,131,1277.1z M224.6,1089.8
	c0-17.1-4.6-33-12.5-46.8c8-13.8,12.5-29.8,12.5-46.8c-17.1,0-33,4.6-46.8,12.5c-13.8-8-29.8-12.5-46.8-12.5
	c0,17.1,4.6,33,12.5,46.8c-8,13.8-12.5,29.8-12.5,46.8c17.1,0,33-4.6,46.8-12.5C191.6,1085.3,207.5,1089.8,224.6,1089.8z
	 M224.6,1183.5c0-17.1-4.6-33-12.5-46.8c8-13.8,12.5-29.8,12.5-46.8c-17.1,0-33,4.6-46.8,12.5c-13.8-8-29.8-12.5-46.8-12.5
	c0,17.1,4.6,33,12.5,46.8c-8,13.8-12.5,29.8-12.5,46.8c17.1,0,33-4.6,46.8-12.5C191.6,1178.9,207.5,1183.5,224.6,1183.5z
	 M224.6,1277.1c0-17.1-4.6-33-12.5-46.8c8-13.8,12.5-29.8,12.5-46.8c-17.1,0-33,4.6-46.8,12.5c-13.8-8-29.8-12.5-46.8-12.5
	c0,17.1,4.6,33,12.5,46.8c-8,13.8-12.5,29.8-12.5,46.8c17.1,0,33-4.6,46.8-12.5C191.6,1272.6,207.5,1277.1,224.6,1277.1z
	 M318.7,902.3c0-17.1-4.6-33-12.5-46.8c8-13.8,12.5-29.8,12.5-46.8c-17.1,0-33,4.6-46.8,12.5c-13.8-8-29.8-12.5-46.8-12.5
	c0,17.1,4.6,33,12.5,46.8c-8,13.8-12.5,29.8-12.5,46.8c17.1,0,33-4.6,46.8-12.5C285.6,897.7,301.6,902.3,318.7,902.3z M318.7,995.9
	c0-17.1-4.6-33-12.5-46.8c8-13.8,12.5-29.8,12.5-46.8c-17.1,0-33,4.6-46.8,12.5c-13.8-8-29.8-12.5-46.8-12.5
	c0,17.1,4.6,33,12.5,46.8c-8,13.8-12.5,29.8-12.5,46.8c17.1,0,33-4.6,46.8-12.5C285.6,991.4,301.6,995.9,318.7,995.9z M412.3,902.3
	c0-17.1-4.6-33-12.5-46.8c8-13.8,12.5-29.8,12.5-46.8c-17.1,0-33,4.6-46.8,12.5c-13.8-8-29.8-12.5-46.8-12.5
	c0,17.1,4.6,33,12.5,46.8c-8,13.8-12.5,29.8-12.5,46.8c17.1,0,33-4.6,46.8-12.5C379.3,897.7,395.2,902.3,412.3,902.3z M412.3,995.9
	c0-17.1-4.6-33-12.5-46.8c8-13.8,12.5-29.8,12.5-46.8c-17.1,0-33,4.6-46.8,12.5c-13.8-8-29.8-12.5-46.8-12.5
	c0,17.1,4.6,33,12.5,46.8c-8,13.8-12.5,29.8-12.5,46.8c17.1,0,33-4.6,46.8-12.5C379.3,991.4,395.2,995.9,412.3,995.9z M506,902.3
	c0-17.1-4.6-33-12.5-46.8c8-13.8,12.5-29.8,12.5-46.8c-17.1,0-33,4.6-46.8,12.5c-13.8-8-29.8-12.5-46.8-12.5
	c0,17.1,4.6,33,12.5,46.8c-8,13.8-12.5,29.8-12.5,46.8c17.1,0,33-4.6,46.8-12.5C472.9,897.7,488.9,902.3,506,902.3z M506,995.9
	c0-17.1-4.6-33-12.5-46.8c8-13.8,12.5-29.8,12.5-46.8c-17.1,0-33,4.6-46.8,12.5c-13.8-8-29.8-12.5-46.8-12.5
	c0,17.1,4.6,33,12.5,46.8c-8,13.8-12.5,29.8-12.5,46.8c17.1,0,33-4.6,46.8-12.5C472.9,991.4,488.9,995.9,506,995.9z M599.6,902.3
	c0-17.1-4.6-33-12.5-46.8c8-13.8,12.5-29.8,12.5-46.8c-17.1,0-33,4.6-46.8,12.5c-13.8-8-29.8-12.5-46.8-12.5
	c0,17.1,4.6,33,12.5,46.8c-8,13.8-12.5,29.8-12.5,46.8c17.1,0,33-4.6,46.8-12.5C566.6,897.7,582.5,902.3,599.6,902.3z M599.6,995.9
	c0-17.1-4.6-33-12.5-46.8c8-13.8,12.5-29.8,12.5-46.8c-17.1,0-33,4.6-46.8,12.5c-13.8-8-29.8-12.5-46.8-12.5
	c0,17.1,4.6,33,12.5,46.8c-8,13.8-12.5,29.8-12.5,46.8c17.1,0,33-4.6,46.8-12.5C566.6,991.4,582.5,995.9,599.6,995.9z M318.7,1089.8
	c0-17.1-4.6-33-12.5-46.8c8-13.8,12.5-29.8,12.5-46.8c-17.1,0-33,4.6-46.8,12.5c-13.8-8-29.8-12.5-46.8-12.5
	c0,17.1,4.6,33,12.5,46.8c-8,13.8-12.5,29.8-12.5,46.8c17.1,0,33-4.6,46.8-12.5C285.6,1085.3,301.6,1089.8,318.7,1089.8z
	 M318.7,1183.5c0-17.1-4.6-33-12.5-46.8c8-13.8,12.5-29.8,12.5-46.8c-17.1,0-33,4.6-46.8,12.5c-13.8-8-29.8-12.5-46.8-12.5
	c0,17.1,4.6,33,12.5,46.8c-8,13.8-12.5,29.8-12.5,46.8c17.1,0,33-4.6,46.8-12.5C285.6,1178.9,301.6,1183.5,318.7,1183.5z
	 M318.7,1277.1c0-17.1-4.6-33-12.5-46.8c8-13.8,12.5-29.8,12.5-46.8c-17.1,0-33,4.6-46.8,12.5c-13.8-8-29.8-12.5-46.8-12.5
	c0,17.1,4.6,33,12.5,46.8c-8,13.8-12.5,29.8-12.5,46.8c17.1,0,33-4.6,46.8-12.5C285.6,1272.6,301.6,1277.1,318.7,1277.1z
	 M412.3,1089.8c0-17.1-4.6-33-12.5-46.8c8-13.8,12.5-29.8,12.5-46.8c-17.1,0-33,4.6-46.8,12.5c-13.8-8-29.8-12.5-46.8-12.5
	c0,17.1,4.6,33,12.5,46.8c-8,13.8-12.5,29.8-12.5,46.8c17.1,0,33-4.6,46.8-12.5C379.3,1085.3,395.2,1089.8,412.3,1089.8z
	 M412.3,1183.5c0-17.1-4.6-33-12.5-46.8c8-13.8,12.5-29.8,12.5-46.8c-17.1,0-33,4.6-46.8,12.5c-13.8-8-29.8-12.5-46.8-12.5
	c0,17.1,4.6,33,12.5,46.8c-8,13.8-12.5,29.8-12.5,46.8c17.1,0,33-4.6,46.8-12.5C379.3,1178.9,395.2,1183.5,412.3,1183.5z
	 M412.3,1277.1c0-17.1-4.6-33-12.5-46.8c8-13.8,12.5-29.8,12.5-46.8c-17.1,0-33,4.6-46.8,12.5c-13.8-8-29.8-12.5-46.8-12.5
	c0,17.1,4.6,33,12.5,46.8c-8,13.8-12.5,29.8-12.5,46.8c17.1,0,33-4.6,46.8-12.5C379.3,1272.6,395.2,1277.1,412.3,1277.1z
	 M506,1089.8c0-17.1-4.6-33-12.5-46.8c8-13.8,12.5-29.8,12.5-46.8c-17.1,0-33,4.6-46.8,12.5c-13.8-8-29.8-12.5-46.8-12.5
	c0,17.1,4.6,33,12.5,46.8c-8,13.8-12.5,29.8-12.5,46.8c17.1,0,33-4.6,46.8-12.5C472.9,1085.3,488.9,1089.8,506,1089.8z M506,1183.5
	c0-17.1-4.6-33-12.5-46.8c8-13.8,12.5-29.8,12.5-46.8c-17.1,0-33,4.6-46.8,12.5c-13.8-8-29.8-12.5-46.8-12.5
	c0,17.1,4.6,33,12.5,46.8c-8,13.8-12.5,29.8-12.5,46.8c17.1,0,33-4.6,46.8-12.5C472.9,1178.9,488.9,1183.5,506,1183.5z M506,1277.1
	c0-17.1-4.6-33-12.5-46.8c8-13.8,12.5-29.8,12.5-46.8c-17.1,0-33,4.6-46.8,12.5c-13.8-8-29.8-12.5-46.8-12.5
	c0,17.1,4.6,33,12.5,46.8c-8,13.8-12.5,29.8-12.5,46.8c17.1,0,33-4.6,46.8-12.5C472.9,1272.6,488.9,1277.1,506,1277.1z
	 M599.6,1089.8c0-17.1-4.6-33-12.5-46.8c8-13.8,12.5-29.8,12.5-46.8c-17.1,0-33,4.6-46.8,12.5c-13.8-8-29.8-12.5-46.8-12.5
	c0,17.1,4.6,33,12.5,46.8c-8,13.8-12.5,29.8-12.5,46.8c17.1,0,33-4.6,46.8-12.5C566.6,1085.3,582.5,1089.8,599.6,1089.8z
	 M599.6,1183.5c0-17.1-4.6-33-12.5-46.8c8-13.8,12.5-29.8,12.5-46.8c-17.1,0-33,4.6-46.8,12.5c-13.8-8-29.8-12.5-46.8-12.5
	c0,17.1,4.6,33,12.5,46.8c-8,13.8-12.5,29.8-12.5,46.8c17.1,0,33-4.6,46.8-12.5C566.6,1178.9,582.5,1183.5,599.6,1183.5z
	 M599.6,1277.1c0-17.1-4.6-33-12.5-46.8c8-13.8,12.5-29.8,12.5-46.8c-17.1,0-33,4.6-46.8,12.5c-13.8-8-29.8-12.5-46.8-12.5
	c0,17.1,4.6,33,12.5,46.8c-8,13.8-12.5,29.8-12.5,46.8c17.1,0,33-4.6,46.8-12.5C566.6,1272.6,582.5,1277.1,599.6,1277.1z
	 M693.7,902.3c0-17.1-4.6-33-12.5-46.8c8-13.8,12.5-29.8,12.5-46.8c-17.1,0-33,4.6-46.8,12.5c-13.8-8-29.8-12.5-46.8-12.5
	c0,17.1,4.6,33,12.5,46.8c-8,13.8-12.5,29.8-12.5,46.8c17.1,0,33-4.6,46.8-12.5C660.6,897.7,676.6,902.3,693.7,902.3z M693.7,995.9
	c0-17.1-4.6-33-12.5-46.8c8-13.8,12.5-29.8,12.5-46.8c-17.1,0-33,4.6-46.8,12.5c-13.8-8-29.8-12.5-46.8-12.5
	c0,17.1,4.6,33,12.5,46.8c-8,13.8-12.5,29.8-12.5,46.8c17.1,0,33-4.6,46.8-12.5C660.6,991.4,676.6,995.9,693.7,995.9z M787.3,902.3
	c0-17.1-4.6-33-12.5-46.8c8-13.8,12.5-29.8,12.5-46.8c-17.1,0-33,4.6-46.8,12.5c-13.8-8-29.8-12.5-46.8-12.5
	c0,17.1,4.6,33,12.5,46.8c-8,13.8-12.5,29.8-12.5,46.8c17.1,0,33-4.6,46.8-12.5C754.3,897.7,770.2,902.3,787.3,902.3z M787.3,995.9
	c0-17.1-4.6-33-12.5-46.8c8-13.8,12.5-29.8,12.5-46.8c-17.1,0-33,4.6-46.8,12.5c-13.8-8-29.8-12.5-46.8-12.5
	c0,17.1,4.6,33,12.5,46.8c-8,13.8-12.5,29.8-12.5,46.8c17.1,0,33-4.6,46.8-12.5C754.3,991.4,770.2,995.9,787.3,995.9z M881,902.3
	c0-17.1-4.6-33-12.5-46.8c8-13.8,12.5-29.8,12.5-46.8c-17.1,0-33,4.6-46.8,12.5c-13.8-8-29.8-12.5-46.8-12.5
	c0,17.1,4.6,33,12.5,46.8c-8,13.8-12.5,29.8-12.5,46.8c17.1,0,33-4.6,46.8-12.5C847.9,897.7,863.9,902.3,881,902.3z M881,995.9
	c0-17.1-4.6-33-12.5-46.8c8-13.8,12.5-29.8,12.5-46.8c-17.1,0-33,4.6-46.8,12.5c-13.8-8-29.8-12.5-46.8-12.5
	c0,17.1,4.6,33,12.5,46.8c-8,13.8-12.5,29.8-12.5,46.8c17.1,0,33-4.6,46.8-12.5C847.9,991.4,863.9,995.9,881,995.9z M974.6,902.3
	c0-17.1-4.6-33-12.5-46.8c8-13.8,12.5-29.8,12.5-46.8c-17.1,0-33,4.6-46.8,12.5c-13.8-8-29.8-12.5-46.8-12.5
	c0,17.1,4.6,33,12.5,46.8c-8,13.8-12.5,29.8-12.5,46.8c17.1,0,33-4.6,46.8-12.5C941.6,897.7,957.5,902.3,974.6,902.3z M974.6,995.9
	c0-17.1-4.6-33-12.5-46.8c8-13.8,12.5-29.8,12.5-46.8c-17.1,0-33,4.6-46.8,12.5c-13.8-8-29.8-12.5-46.8-12.5
	c0,17.1,4.6,33,12.5,46.8c-8,13.8-12.5,29.8-12.5,46.8c17.1,0,33-4.6,46.8-12.5C941.6,991.4,957.5,995.9,974.6,995.9z M693.7,1089.8
	c0-17.1-4.6-33-12.5-46.8c8-13.8,12.5-29.8,12.5-46.8c-17.1,0-33,4.6-46.8,12.5c-13.8-8-29.8-12.5-46.8-12.5
	c0,17.1,4.6,33,12.5,46.8c-8,13.8-12.5,29.8-12.5,46.8c17.1,0,33-4.6,46.8-12.5C660.6,1085.3,676.6,1089.8,693.7,1089.8z
	 M693.7,1183.5c0-17.1-4.6-33-12.5-46.8c8-13.8,12.5-29.8,12.5-46.8c-17.1,0-33,4.6-46.8,12.5c-13.8-8-29.8-12.5-46.8-12.5
	c0,17.1,4.6,33,12.5,46.8c-8,13.8-12.5,29.8-12.5,46.8c17.1,0,33-4.6,46.8-12.5C660.6,1178.9,676.6,1183.5,693.7,1183.5z
	 M693.7,1277.1c0-17.1-4.6-33-12.5-46.8c8-13.8,12.5-29.8,12.5-46.8c-17.1,0-33,4.6-46.8,12.5c-13.8-8-29.8-12.5-46.8-12.5
	c0,17.1,4.6,33,12.5,46.8c-8,13.8-12.5,29.8-12.5,46.8c17.1,0,33-4.6,46.8-12.5C660.6,1272.6,676.6,1277.1,693.7,1277.1z
	 M787.3,1089.8c0-17.1-4.6-33-12.5-46.8c8-13.8,12.5-29.8,12.5-46.8c-17.1,0-33,4.6-46.8,12.5c-13.8-8-29.8-12.5-46.8-12.5
	c0,17.1,4.6,33,12.5,46.8c-8,13.8-12.5,29.8-12.5,46.8c17.1,0,33-4.6,46.8-12.5C754.3,1085.3,770.2,1089.8,787.3,1089.8z
	 M787.3,1183.5c0-17.1-4.6-33-12.5-46.8c8-13.8,12.5-29.8,12.5-46.8c-17.1,0-33,4.6-46.8,12.5c-13.8-8-29.8-12.5-46.8-12.5
	c0,17.1,4.6,33,12.5,46.8c-8,13.8-12.5,29.8-12.5,46.8c17.1,0,33-4.6,46.8-12.5C754.3,1178.9,770.2,1183.5,787.3,1183.5z
	 M787.3,1277.1c0-17.1-4.6-33-12.5-46.8c8-13.8,12.5-29.8,12.5-46.8c-17.1,0-33,4.6-46.8,12.5c-13.8-8-29.8-12.5-46.8-12.5
	c0,17.1,4.6,33,12.5,46.8c-8,13.8-12.5,29.8-12.5,46.8c17.1,0,33-4.6,46.8-12.5C754.3,1272.6,770.2,1277.1,787.3,1277.1z
	 M881,1089.8c0-17.1-4.6-33-12.5-46.8c8-13.8,12.5-29.8,12.5-46.8c-17.1,0-33,4.6-46.8,12.5c-13.8-8-29.8-12.5-46.8-12.5
	c0,17.1,4.6,33,12.5,46.8c-8,13.8-12.5,29.8-12.5,46.8c17.1,0,33-4.6,46.8-12.5C847.9,1085.3,863.9,1089.8,881,1089.8z M881,1183.5
	c0-17.1-4.6-33-12.5-46.8c8-13.8,12.5-29.8,12.5-46.8c-17.1,0-33,4.6-46.8,12.5c-13.8-8-29.8-12.5-46.8-12.5
	c0,17.1,4.6,33,12.5,46.8c-8,13.8-12.5,29.8-12.5,46.8c17.1,0,33-4.6,46.8-12.5C847.9,1178.9,863.9,1183.5,881,1183.5z M881,1277.1
	c0-17.1-4.6-33-12.5-46.8c8-13.8,12.5-29.8,12.5-46.8c-17.1,0-33,4.6-46.8,12.5c-13.8-8-29.8-12.5-46.8-12.5
	c0,17.1,4.6,33,12.5,46.8c-8,13.8-12.5,29.8-12.5,46.8c17.1,0,33-4.6,46.8-12.5C847.9,1272.6,863.9,1277.1,881,1277.1z
	 M974.6,1089.8c0-17.1-4.6-33-12.5-46.8c8-13.8,12.5-29.8,12.5-46.8c-17.1,0-33,4.6-46.8,12.5c-13.8-8-29.8-12.5-46.8-12.5
	c0,17.1,4.6,33,12.5,46.8c-8,13.8-12.5,29.8-12.5,46.8c17.1,0,33-4.6,46.8-12.5C941.6,1085.3,957.5,1089.8,974.6,1089.8z
	 M974.6,1183.5c0-17.1-4.6-33-12.5-46.8c8-13.8,12.5-29.8,12.5-46.8c-17.1,0-33,4.6-46.8,12.5c-13.8-8-29.8-12.5-46.8-12.5
	c0,17.1,4.6,33,12.5,46.8c-8,13.8-12.5,29.8-12.5,46.8c17.1,0,33-4.6,46.8-12.5C941.6,1178.9,957.5,1183.5,974.6,1183.5z
	 M974.6,1277.1c0-17.1-4.6-33-12.5-46.8c8-13.8,12.5-29.8,12.5-46.8c-17.1,0-33,4.6-46.8,12.5c-13.8-8-29.8-12.5-46.8-12.5
	c0,17.1,4.6,33,12.5,46.8c-8,13.8-12.5,29.8-12.5,46.8c17.1,0,33-4.6,46.8-12.5C941.6,1272.6,957.5,1277.1,974.6,1277.1z
	 M1068.7,902.3c0-17.1-4.6-33-12.5-46.8c8-13.8,12.5-29.8,12.5-46.8c-17.1,0-33,4.6-46.8,12.5c-13.8-8-29.8-12.5-46.8-12.5
	c0,17.1,4.6,33,12.5,46.8c-8,13.8-12.5,29.8-12.5,46.8c17.1,0,33-4.6,46.8-12.5C1035.6,897.7,1051.6,902.3,1068.7,902.3z
	 M1068.7,995.9c0-17.1-4.6-33-12.5-46.8c8-13.8,12.5-29.8,12.5-46.8c-17.1,0-33,4.6-46.8,12.5c-13.8-8-29.8-12.5-46.8-12.5
	c0,17.1,4.6,33,12.5,46.8c-8,13.8-12.5,29.8-12.5,46.8c17.1,0,33-4.6,46.8-12.5C1035.6,991.4,1051.6,995.9,1068.7,995.9z
	 M1162.3,902.3c0-17.1-4.6-33-12.5-46.8c8-13.8,12.5-29.8,12.5-46.8c-17.1,0-33,4.6-46.8,12.5c-13.8-8-29.8-12.5-46.8-12.5
	c0,17.1,4.6,33,12.5,46.8c-8,13.8-12.5,29.8-12.5,46.8c17.1,0,33-4.6,46.8-12.5C1129.3,897.7,1145.2,902.3,1162.3,902.3z
	 M1162.3,995.9c0-17.1-4.6-33-12.5-46.8c8-13.8,12.5-29.8,12.5-46.8c-17.1,0-33,4.6-46.8,12.5c-13.8-8-29.8-12.5-46.8-12.5
	c0,17.1,4.6,33,12.5,46.8c-8,13.8-12.5,29.8-12.5,46.8c17.1,0,33-4.6,46.8-12.5C1129.3,991.4,1145.2,995.9,1162.3,995.9z
	 M1256,902.3c0-17.1-4.6-33-12.5-46.8c8-13.8,12.5-29.8,12.5-46.8c-17.1,0-33,4.6-46.8,12.5c-13.8-8-29.8-12.5-46.8-12.5
	c0,17.1,4.6,33,12.5,46.8c-8,13.8-12.5,29.8-12.5,46.8c17.1,0,33-4.6,46.8-12.5C1222.9,897.7,1238.9,902.3,1256,902.3z M1256,995.9
	c0-17.1-4.6-33-12.5-46.8c8-13.8,12.5-29.8,12.5-46.8c-17.1,0-33,4.6-46.8,12.5c-13.8-8-29.8-12.5-46.8-12.5
	c0,17.1,4.6,33,12.5,46.8c-8,13.8-12.5,29.8-12.5,46.8c17.1,0,33-4.6,46.8-12.5C1222.9,991.4,1238.9,995.9,1256,995.9z
	 M1349.6,902.3c0-17.1-4.6-33-12.5-46.8c8-13.8,12.5-29.8,12.5-46.8c-17.1,0-33,4.6-46.8,12.5c-13.8-8-29.8-12.5-46.8-12.5
	c0,17.1,4.6,33,12.5,46.8c-8,13.8-12.5,29.8-12.5,46.8c17.1,0,33-4.6,46.8-12.5C1316.6,897.7,1332.5,902.3,1349.6,902.3z
	 M1349.6,995.9c0-17.1-4.6-33-12.5-46.8c8-13.8,12.5-29.8,12.5-46.8c-17.1,0-33,4.6-46.8,12.5c-13.8-8-29.8-12.5-46.8-12.5
	c0,17.1,4.6,33,12.5,46.8c-8,13.8-12.5,29.8-12.5,46.8c17.1,0,33-4.6,46.8-12.5C1316.6,991.4,1332.5,995.9,1349.6,995.9z
	 M1068.7,1089.8c0-17.1-4.6-33-12.5-46.8c8-13.8,12.5-29.8,12.5-46.8c-17.1,0-33,4.6-46.8,12.5c-13.8-8-29.8-12.5-46.8-12.5
	c0,17.1,4.6,33,12.5,46.8c-8,13.8-12.5,29.8-12.5,46.8c17.1,0,33-4.6,46.8-12.5C1035.6,1085.3,1051.6,1089.8,1068.7,1089.8z
	 M1068.7,1183.5c0-17.1-4.6-33-12.5-46.8c8-13.8,12.5-29.8,12.5-46.8c-17.1,0-33,4.6-46.8,12.5c-13.8-8-29.8-12.5-46.8-12.5
	c0,17.1,4.6,33,12.5,46.8c-8,13.8-12.5,29.8-12.5,46.8c17.1,0,33-4.6,46.8-12.5C1035.6,1178.9,1051.6,1183.5,1068.7,1183.5z
	 M1068.7,1277.1c0-17.1-4.6-33-12.5-46.8c8-13.8,12.5-29.8,12.5-46.8c-17.1,0-33,4.6-46.8,12.5c-13.8-8-29.8-12.5-46.8-12.5
	c0,17.1,4.6,33,12.5,46.8c-8,13.8-12.5,29.8-12.5,46.8c17.1,0,33-4.6,46.8-12.5C1035.6,1272.6,1051.6,1277.1,1068.7,1277.1z
	 M1162.3,1089.8c0-17.1-4.6-33-12.5-46.8c8-13.8,12.5-29.8,12.5-46.8c-17.1,0-33,4.6-46.8,12.5c-13.8-8-29.8-12.5-46.8-12.5
	c0,17.1,4.6,33,12.5,46.8c-8,13.8-12.5,29.8-12.5,46.8c17.1,0,33-4.6,46.8-12.5C1129.3,1085.3,1145.2,1089.8,1162.3,1089.8z
	 M1162.3,1183.5c0-17.1-4.6-33-12.5-46.8c8-13.8,12.5-29.8,12.5-46.8c-17.1,0-33,4.6-46.8,12.5c-13.8-8-29.8-12.5-46.8-12.5
	c0,17.1,4.6,33,12.5,46.8c-8,13.8-12.5,29.8-12.5,46.8c17.1,0,33-4.6,46.8-12.5C1129.3,1178.9,1145.2,1183.5,1162.3,1183.5z
	 M1162.3,1277.1c0-17.1-4.6-33-12.5-46.8c8-13.8,12.5-29.8,12.5-46.8c-17.1,0-33,4.6-46.8,12.5c-13.8-8-29.8-12.5-46.8-12.5
	c0,17.1,4.6,33,12.5,46.8c-8,13.8-12.5,29.8-12.5,46.8c17.1,0,33-4.6,46.8-12.5C1129.3,1272.6,1145.2,1277.1,1162.3,1277.1z
	 M1256,1089.8c0-17.1-4.6-33-12.5-46.8c8-13.8,12.5-29.8,12.5-46.8c-17.1,0-33,4.6-46.8,12.5c-13.8-8-29.8-12.5-46.8-12.5
	c0,17.1,4.6,33,12.5,46.8c-8,13.8-12.5,29.8-12.5,46.8c17.1,0,33-4.6,46.8-12.5C1222.9,1085.3,1238.9,1089.8,1256,1089.8z
	 M1256,1183.5c0-17.1-4.6-33-12.5-46.8c8-13.8,12.5-29.8,12.5-46.8c-17.1,0-33,4.6-46.8,12.5c-13.8-8-29.8-12.5-46.8-12.5
	c0,17.1,4.6,33,12.5,46.8c-8,13.8-12.5,29.8-12.5,46.8c17.1,0,33-4.6,46.8-12.5C1222.9,1178.9,1238.9,1183.5,1256,1183.5z
	 M1256,1277.1c0-17.1-4.6-33-12.5-46.8c8-13.8,12.5-29.8,12.5-46.8c-17.1,0-33,4.6-46.8,12.5c-13.8-8-29.8-12.5-46.8-12.5
	c0,17.1,4.6,33,12.5,46.8c-8,13.8-12.5,29.8-12.5,46.8c17.1,0,33-4.6,46.8-12.5C1222.9,1272.6,1238.9,1277.1,1256,1277.1z
	 M1349.6,1089.8c0-17.1-4.6-33-12.5-46.8c8-13.8,12.5-29.8,12.5-46.8c-17.1,0-33,4.6-46.8,12.5c-13.8-8-29.8-12.5-46.8-12.5
	c0,17.1,4.6,33,12.5,46.8c-8,13.8-12.5,29.8-12.5,46.8c17.1,0,33-4.6,46.8-12.5C1316.6,1085.3,1332.5,1089.8,1349.6,1089.8z
	 M1349.6,1183.5c0-17.1-4.6-33-12.5-46.8c8-13.8,12.5-29.8,12.5-46.8c-17.1,0-33,4.6-46.8,12.5c-13.8-8-29.8-12.5-46.8-12.5
	c0,17.1,4.6,33,12.5,46.8c-8,13.8-12.5,29.8-12.5,46.8c17.1,0,33-4.6,46.8-12.5C1316.6,1178.9,1332.5,1183.5,1349.6,1183.5z
	 M1349.6,1277.1c0-17.1-4.6-33-12.5-46.8c8-13.8,12.5-29.8,12.5-46.8c-17.1,0-33,4.6-46.8,12.5c-13.8-8-29.8-12.5-46.8-12.5
	c0,17.1,4.6,33,12.5,46.8c-8,13.8-12.5,29.8-12.5,46.8c17.1,0,33-4.6,46.8-12.5C1316.6,1272.6,1332.5,1277.1,1349.6,1277.1z
	 M1443.7,902.3c0-17.1-4.6-33-12.5-46.8c8-13.8,12.5-29.8,12.5-46.8c-17.1,0-33,4.6-46.8,12.5c-13.8-8-29.8-12.5-46.8-12.5
	c0,17.1,4.6,33,12.5,46.8c-8,13.8-12.5,29.8-12.5,46.8c17.1,0,33-4.6,46.8-12.5C1410.6,897.7,1426.6,902.3,1443.7,902.3z
	 M1443.7,995.9c0-17.1-4.6-33-12.5-46.8c8-13.8,12.5-29.8,12.5-46.8c-17.1,0-33,4.6-46.8,12.5c-13.8-8-29.8-12.5-46.8-12.5
	c0,17.1,4.6,33,12.5,46.8c-8,13.8-12.5,29.8-12.5,46.8c17.1,0,33-4.6,46.8-12.5C1410.6,991.4,1426.6,995.9,1443.7,995.9z
	 M1537.3,902.3c0-17.1-4.6-33-12.5-46.8c8-13.8,12.5-29.8,12.5-46.8c-17.1,0-33,4.6-46.8,12.5c-13.8-8-29.8-12.5-46.8-12.5
	c0,17.1,4.6,33,12.5,46.8c-8,13.8-12.5,29.8-12.5,46.8c17.1,0,33-4.6,46.8-12.5C1504.3,897.7,1520.2,902.3,1537.3,902.3z
	 M1537.3,995.9c0-17.1-4.6-33-12.5-46.8c8-13.8,12.5-29.8,12.5-46.8c-17.1,0-33,4.6-46.8,12.5c-13.8-8-29.8-12.5-46.8-12.5
	c0,17.1,4.6,33,12.5,46.8c-8,13.8-12.5,29.8-12.5,46.8c17.1,0,33-4.6,46.8-12.5C1504.3,991.4,1520.2,995.9,1537.3,995.9z
	 M1631,902.3c0-17.1-4.6-33-12.5-46.8c8-13.8,12.5-29.8,12.5-46.8c-17.1,0-33,4.6-46.8,12.5c-13.8-8-29.8-12.5-46.8-12.5
	c0,17.1,4.6,33,12.5,46.8c-8,13.8-12.5,29.8-12.5,46.8c17.1,0,33-4.6,46.8-12.5C1597.9,897.7,1613.9,902.3,1631,902.3z M1631,995.9
	c0-17.1-4.6-33-12.5-46.8c8-13.8,12.5-29.8,12.5-46.8c-17.1,0-33,4.6-46.8,12.5c-13.8-8-29.8-12.5-46.8-12.5
	c0,17.1,4.6,33,12.5,46.8c-8,13.8-12.5,29.8-12.5,46.8c17.1,0,33-4.6,46.8-12.5C1597.9,991.4,1613.9,995.9,1631,995.9z
	 M1724.6,902.3c0-17.1-4.6-33-12.5-46.8c8-13.8,12.5-29.8,12.5-46.8c-17.1,0-33,4.6-46.8,12.5c-13.8-8-29.8-12.5-46.8-12.5
	c0,17.1,4.6,33,12.5,46.8c-8,13.8-12.5,29.8-12.5,46.8c17.1,0,33-4.6,46.8-12.5C1691.6,897.7,1707.5,902.3,1724.6,902.3z
	 M1724.6,995.9c0-17.1-4.6-33-12.5-46.8c8-13.8,12.5-29.8,12.5-46.8c-17.1,0-33,4.6-46.8,12.5c-13.8-8-29.8-12.5-46.8-12.5
	c0,17.1,4.6,33,12.5,46.8c-8,13.8-12.5,29.8-12.5,46.8c17.1,0,33-4.6,46.8-12.5C1691.6,991.4,1707.5,995.9,1724.6,995.9z
	 M1443.7,1089.8c0-17.1-4.6-33-12.5-46.8c8-13.8,12.5-29.8,12.5-46.8c-17.1,0-33,4.6-46.8,12.5c-13.8-8-29.8-12.5-46.8-12.5
	c0,17.1,4.6,33,12.5,46.8c-8,13.8-12.5,29.8-12.5,46.8c17.1,0,33-4.6,46.8-12.5C1410.6,1085.3,1426.6,1089.8,1443.7,1089.8z
	 M1443.7,1183.5c0-17.1-4.6-33-12.5-46.8c8-13.8,12.5-29.8,12.5-46.8c-17.1,0-33,4.6-46.8,12.5c-13.8-8-29.8-12.5-46.8-12.5
	c0,17.1,4.6,33,12.5,46.8c-8,13.8-12.5,29.8-12.5,46.8c17.1,0,33-4.6,46.8-12.5C1410.6,1178.9,1426.6,1183.5,1443.7,1183.5z
	 M1443.7,1277.1c0-17.1-4.6-33-12.5-46.8c8-13.8,12.5-29.8,12.5-46.8c-17.1,0-33,4.6-46.8,12.5c-13.8-8-29.8-12.5-46.8-12.5
	c0,17.1,4.6,33,12.5,46.8c-8,13.8-12.5,29.8-12.5,46.8c17.1,0,33-4.6,46.8-12.5C1410.6,1272.6,1426.6,1277.1,1443.7,1277.1z
	 M1537.3,1089.8c0-17.1-4.6-33-12.5-46.8c8-13.8,12.5-29.8,12.5-46.8c-17.1,0-33,4.6-46.8,12.5c-13.8-8-29.8-12.5-46.8-12.5
	c0,17.1,4.6,33,12.5,46.8c-8,13.8-12.5,29.8-12.5,46.8c17.1,0,33-4.6,46.8-12.5C1504.3,1085.3,1520.2,1089.8,1537.3,1089.8z
	 M1537.3,1183.5c0-17.1-4.6-33-12.5-46.8c8-13.8,12.5-29.8,12.5-46.8c-17.1,0-33,4.6-46.8,12.5c-13.8-8-29.8-12.5-46.8-12.5
	c0,17.1,4.6,33,12.5,46.8c-8,13.8-12.5,29.8-12.5,46.8c17.1,0,33-4.6,46.8-12.5C1504.3,1178.9,1520.2,1183.5,1537.3,1183.5z
	 M1537.3,1277.1c0-17.1-4.6-33-12.5-46.8c8-13.8,12.5-29.8,12.5-46.8c-17.1,0-33,4.6-46.8,12.5c-13.8-8-29.8-12.5-46.8-12.5
	c0,17.1,4.6,33,12.5,46.8c-8,13.8-12.5,29.8-12.5,46.8c17.1,0,33-4.6,46.8-12.5C1504.3,1272.6,1520.2,1277.1,1537.3,1277.1z
	 M1631,1089.8c0-17.1-4.6-33-12.5-46.8c8-13.8,12.5-29.8,12.5-46.8c-17.1,0-33,4.6-46.8,12.5c-13.8-8-29.8-12.5-46.8-12.5
	c0,17.1,4.6,33,12.5,46.8c-8,13.8-12.5,29.8-12.5,46.8c17.1,0,33-4.6,46.8-12.5C1597.9,1085.3,1613.9,1089.8,1631,1089.8z
	 M1631,1183.5c0-17.1-4.6-33-12.5-46.8c8-13.8,12.5-29.8,12.5-46.8c-17.1,0-33,4.6-46.8,12.5c-13.8-8-29.8-12.5-46.8-12.5
	c0,17.1,4.6,33,12.5,46.8c-8,13.8-12.5,29.8-12.5,46.8c17.1,0,33-4.6,46.8-12.5C1597.9,1178.9,1613.9,1183.5,1631,1183.5z
	 M1631,1277.1c0-17.1-4.6-33-12.5-46.8c8-13.8,12.5-29.8,12.5-46.8c-17.1,0-33,4.6-46.8,12.5c-13.8-8-29.8-12.5-46.8-12.5
	c0,17.1,4.6,33,12.5,46.8c-8,13.8-12.5,29.8-12.5,46.8c17.1,0,33-4.6,46.8-12.5C1597.9,1272.6,1613.9,1277.1,1631,1277.1z
	 M1724.6,1089.8c0-17.1-4.6-33-12.5-46.8c8-13.8,12.5-29.8,12.5-46.8c-17.1,0-33,4.6-46.8,12.5c-13.8-8-29.8-12.5-46.8-12.5
	c0,17.1,4.6,33,12.5,46.8c-8,13.8-12.5,29.8-12.5,46.8c17.1,0,33-4.6,46.8-12.5C1691.6,1085.3,1707.5,1089.8,1724.6,1089.8z
	 M1724.6,1183.5c0-17.1-4.6-33-12.5-46.8c8-13.8,12.5-29.8,12.5-46.8c-17.1,0-33,4.6-46.8,12.5c-13.8-8-29.8-12.5-46.8-12.5
	c0,17.1,4.6,33,12.5,46.8c-8,13.8-12.5,29.8-12.5,46.8c17.1,0,33-4.6,46.8-12.5C1691.6,1178.9,1707.5,1183.5,1724.6,1183.5z
	 M1724.6,1277.1c0-17.1-4.6-33-12.5-46.8c8-13.8,12.5-29.8,12.5-46.8c-17.1,0-33,4.6-46.8,12.5c-13.8-8-29.8-12.5-46.8-12.5
	c0,17.1,4.6,33,12.5,46.8c-8,13.8-12.5,29.8-12.5,46.8c17.1,0,33-4.6,46.8-12.5C1691.6,1272.6,1707.5,1277.1,1724.6,1277.1z
	 M1818.7-33.7c0-17.1-4.6-33-12.5-46.8c8-13.8,12.5-29.8,12.5-46.8c-17.1,0-33,4.6-46.8,12.5c-13.8-8-29.8-12.5-46.8-12.5
	c0,17.1,4.6,33,12.5,46.8c-8,13.8-12.5,29.8-12.5,46.8c17.1,0,33-4.6,46.8-12.5C1785.6-38.3,1801.6-33.7,1818.7-33.7z M1818.7,59.9
	c0-17.1-4.6-33-12.5-46.8c8-13.8,12.5-29.8,12.5-46.8c-17.1,0-33,4.6-46.8,12.5c-13.8-8-29.8-12.5-46.8-12.5
	c0,17.1,4.6,33,12.5,46.8c-8,13.8-12.5,29.8-12.5,46.8c17.1,0,33-4.6,46.8-12.5C1785.6,55.4,1801.6,59.9,1818.7,59.9z M1912.3-33.7
	c0-17.1-4.6-33-12.5-46.8c8-13.8,12.5-29.8,12.5-46.8c-17.1,0-33,4.6-46.8,12.5c-13.8-8-29.8-12.5-46.8-12.5
	c0,17.1,4.6,33,12.5,46.8c-8,13.8-12.5,29.8-12.5,46.8c17.1,0,33-4.6,46.8-12.5C1879.3-38.3,1895.2-33.7,1912.3-33.7z M1912.3,59.9
	c0-17.1-4.6-33-12.5-46.8c8-13.8,12.5-29.8,12.5-46.8c-17.1,0-33,4.6-46.8,12.5c-13.8-8-29.8-12.5-46.8-12.5
	c0,17.1,4.6,33,12.5,46.8c-8,13.8-12.5,29.8-12.5,46.8c17.1,0,33-4.6,46.8-12.5C1879.3,55.4,1895.2,59.9,1912.3,59.9z M2006-33.7
	c0-17.1-4.6-33-12.5-46.8c8-13.8,12.5-29.8,12.5-46.8c-17.1,0-33,4.6-46.8,12.5c-13.8-8-29.8-12.5-46.8-12.5
	c0,17.1,4.6,33,12.5,46.8c-8,13.8-12.5,29.8-12.5,46.8c17.1,0,33-4.6,46.8-12.5C1972.9-38.3,1988.9-33.7,2006-33.7z M2006,59.9
	c0-17.1-4.6-33-12.5-46.8c8-13.8,12.5-29.8,12.5-46.8c-17.1,0-33,4.6-46.8,12.5c-13.8-8-29.8-12.5-46.8-12.5
	c0,17.1,4.6,33,12.5,46.8c-8,13.8-12.5,29.8-12.5,46.8c17.1,0,33-4.6,46.8-12.5C1972.9,55.4,1988.9,59.9,2006,59.9z M2099.6-33.7
	c0-17.1-4.6-33-12.5-46.8c8-13.8,12.5-29.8,12.5-46.8c-17.1,0-33,4.6-46.8,12.5c-13.8-8-29.8-12.5-46.8-12.5
	c0,17.1,4.6,33,12.5,46.8c-8,13.8-12.5,29.8-12.5,46.8c17.1,0,33-4.6,46.8-12.5C2066.6-38.3,2082.5-33.7,2099.6-33.7z M2099.6,59.9
	c0-17.1-4.6-33-12.5-46.8c8-13.8,12.5-29.8,12.5-46.8c-17.1,0-33,4.6-46.8,12.5c-13.8-8-29.8-12.5-46.8-12.5
	c0,17.1,4.6,33,12.5,46.8c-8,13.8-12.5,29.8-12.5,46.8c17.1,0,33-4.6,46.8-12.5C2066.6,55.4,2082.5,59.9,2099.6,59.9z M1818.7,153.8
	c0-17.1-4.6-33-12.5-46.8c8-13.8,12.5-29.8,12.5-46.8c-17.1,0-33,4.6-46.8,12.5c-13.8-8-29.8-12.5-46.8-12.5
	c0,17.1,4.6,33,12.5,46.8c-8,13.8-12.5,29.8-12.5,46.8c17.1,0,33-4.6,46.8-12.5C1785.6,149.3,1801.6,153.8,1818.7,153.8z
	 M1818.7,247.5c0-17.1-4.6-33-12.5-46.8c8-13.8,12.5-29.8,12.5-46.8c-17.1,0-33,4.6-46.8,12.5c-13.8-8-29.8-12.5-46.8-12.5
	c0,17.1,4.6,33,12.5,46.8c-8,13.8-12.5,29.8-12.5,46.8c17.1,0,33-4.6,46.8-12.5C1785.6,242.9,1801.6,247.5,1818.7,247.5z
	 M1818.7,341.1c0-17.1-4.6-33-12.5-46.8c8-13.8,12.5-29.8,12.5-46.8c-17.1,0-33,4.6-46.8,12.5c-13.8-8-29.8-12.5-46.8-12.5
	c0,17.1,4.6,33,12.5,46.8c-8,13.8-12.5,29.8-12.5,46.8c17.1,0,33-4.6,46.8-12.5C1785.6,336.6,1801.6,341.1,1818.7,341.1z
	 M1912.3,153.8c0-17.1-4.6-33-12.5-46.8c8-13.8,12.5-29.8,12.5-46.8c-17.1,0-33,4.6-46.8,12.5c-13.8-8-29.8-12.5-46.8-12.5
	c0,17.1,4.6,33,12.5,46.8c-8,13.8-12.5,29.8-12.5,46.8c17.1,0,33-4.6,46.8-12.5C1879.3,149.3,1895.2,153.8,1912.3,153.8z
	 M1912.3,247.5c0-17.1-4.6-33-12.5-46.8c8-13.8,12.5-29.8,12.5-46.8c-17.1,0-33,4.6-46.8,12.5c-13.8-8-29.8-12.5-46.8-12.5
	c0,17.1,4.6,33,12.5,46.8c-8,13.8-12.5,29.8-12.5,46.8c17.1,0,33-4.6,46.8-12.5C1879.3,242.9,1895.2,247.5,1912.3,247.5z
	 M1912.3,341.1c0-17.1-4.6-33-12.5-46.8c8-13.8,12.5-29.8,12.5-46.8c-17.1,0-33,4.6-46.8,12.5c-13.8-8-29.8-12.5-46.8-12.5
	c0,17.1,4.6,33,12.5,46.8c-8,13.8-12.5,29.8-12.5,46.8c17.1,0,33-4.6,46.8-12.5C1879.3,336.6,1895.2,341.1,1912.3,341.1z
	 M2006,153.8c0-17.1-4.6-33-12.5-46.8c8-13.8,12.5-29.8,12.5-46.8c-17.1,0-33,4.6-46.8,12.5c-13.8-8-29.8-12.5-46.8-12.5
	c0,17.1,4.6,33,12.5,46.8c-8,13.8-12.5,29.8-12.5,46.8c17.1,0,33-4.6,46.8-12.5C1972.9,149.3,1988.9,153.8,2006,153.8z M2006,247.5
	c0-17.1-4.6-33-12.5-46.8c8-13.8,12.5-29.8,12.5-46.8c-17.1,0-33,4.6-46.8,12.5c-13.8-8-29.8-12.5-46.8-12.5
	c0,17.1,4.6,33,12.5,46.8c-8,13.8-12.5,29.8-12.5,46.8c17.1,0,33-4.6,46.8-12.5C1972.9,242.9,1988.9,247.5,2006,247.5z M2006,341.1
	c0-17.1-4.6-33-12.5-46.8c8-13.8,12.5-29.8,12.5-46.8c-17.1,0-33,4.6-46.8,12.5c-13.8-8-29.8-12.5-46.8-12.5
	c0,17.1,4.6,33,12.5,46.8c-8,13.8-12.5,29.8-12.5,46.8c17.1,0,33-4.6,46.8-12.5C1972.9,336.6,1988.9,341.1,2006,341.1z
	 M2099.6,153.8c0-17.1-4.6-33-12.5-46.8c8-13.8,12.5-29.8,12.5-46.8c-17.1,0-33,4.6-46.8,12.5c-13.8-8-29.8-12.5-46.8-12.5
	c0,17.1,4.6,33,12.5,46.8c-8,13.8-12.5,29.8-12.5,46.8c17.1,0,33-4.6,46.8-12.5C2066.6,149.3,2082.5,153.8,2099.6,153.8z
	 M2099.6,247.5c0-17.1-4.6-33-12.5-46.8c8-13.8,12.5-29.8,12.5-46.8c-17.1,0-33,4.6-46.8,12.5c-13.8-8-29.8-12.5-46.8-12.5
	c0,17.1,4.6,33,12.5,46.8c-8,13.8-12.5,29.8-12.5,46.8c17.1,0,33-4.6,46.8-12.5C2066.6,242.9,2082.5,247.5,2099.6,247.5z
	 M2099.6,341.1c0-17.1-4.6-33-12.5-46.8c8-13.8,12.5-29.8,12.5-46.8c-17.1,0-33,4.6-46.8,12.5c-13.8-8-29.8-12.5-46.8-12.5
	c0,17.1,4.6,33,12.5,46.8c-8,13.8-12.5,29.8-12.5,46.8c17.1,0,33-4.6,46.8-12.5C2066.6,336.6,2082.5,341.1,2099.6,341.1z
	 M1818.7,434.3c0-17.1-4.6-33-12.5-46.8c8-13.8,12.5-29.8,12.5-46.8c-17.1,0-33,4.6-46.8,12.5c-13.8-8-29.8-12.5-46.8-12.5
	c0,17.1,4.6,33,12.5,46.8c-8,13.8-12.5,29.8-12.5,46.8c17.1,0,33-4.6,46.8-12.5C1785.6,429.7,1801.6,434.3,1818.7,434.3z
	 M1818.7,527.9c0-17.1-4.6-33-12.5-46.8c8-13.8,12.5-29.8,12.5-46.8c-17.1,0-33,4.6-46.8,12.5c-13.8-8-29.8-12.5-46.8-12.5
	c0,17.1,4.6,33,12.5,46.8c-8,13.8-12.5,29.8-12.5,46.8c17.1,0,33-4.6,46.8-12.5C1785.6,523.4,1801.6,527.9,1818.7,527.9z
	 M1912.3,434.3c0-17.1-4.6-33-12.5-46.8c8-13.8,12.5-29.8,12.5-46.8c-17.1,0-33,4.6-46.8,12.5c-13.8-8-29.8-12.5-46.8-12.5
	c0,17.1,4.6,33,12.5,46.8c-8,13.8-12.5,29.8-12.5,46.8c17.1,0,33-4.6,46.8-12.5C1879.3,429.7,1895.2,434.3,1912.3,434.3z
	 M1912.3,527.9c0-17.1-4.6-33-12.5-46.8c8-13.8,12.5-29.8,12.5-46.8c-17.1,0-33,4.6-46.8,12.5c-13.8-8-29.8-12.5-46.8-12.5
	c0,17.1,4.6,33,12.5,46.8c-8,13.8-12.5,29.8-12.5,46.8c17.1,0,33-4.6,46.8-12.5C1879.3,523.4,1895.2,527.9,1912.3,527.9z
	 M2006,434.3c0-17.1-4.6-33-12.5-46.8c8-13.8,12.5-29.8,12.5-46.8c-17.1,0-33,4.6-46.8,12.5c-13.8-8-29.8-12.5-46.8-12.5
	c0,17.1,4.6,33,12.5,46.8c-8,13.8-12.5,29.8-12.5,46.8c17.1,0,33-4.6,46.8-12.5C1972.9,429.7,1988.9,434.3,2006,434.3z M2006,527.9
	c0-17.1-4.6-33-12.5-46.8c8-13.8,12.5-29.8,12.5-46.8c-17.1,0-33,4.6-46.8,12.5c-13.8-8-29.8-12.5-46.8-12.5
	c0,17.1,4.6,33,12.5,46.8c-8,13.8-12.5,29.8-12.5,46.8c17.1,0,33-4.6,46.8-12.5C1972.9,523.4,1988.9,527.9,2006,527.9z
	 M2099.6,434.3c0-17.1-4.6-33-12.5-46.8c8-13.8,12.5-29.8,12.5-46.8c-17.1,0-33,4.6-46.8,12.5c-13.8-8-29.8-12.5-46.8-12.5
	c0,17.1,4.6,33,12.5,46.8c-8,13.8-12.5,29.8-12.5,46.8c17.1,0,33-4.6,46.8-12.5C2066.6,429.7,2082.5,434.3,2099.6,434.3z
	 M2099.6,527.9c0-17.1-4.6-33-12.5-46.8c8-13.8,12.5-29.8,12.5-46.8c-17.1,0-33,4.6-46.8,12.5c-13.8-8-29.8-12.5-46.8-12.5
	c0,17.1,4.6,33,12.5,46.8c-8,13.8-12.5,29.8-12.5,46.8c17.1,0,33-4.6,46.8-12.5C2066.6,523.4,2082.5,527.9,2099.6,527.9z
	 M1818.7,621.8c0-17.1-4.6-33-12.5-46.8c8-13.8,12.5-29.8,12.5-46.8c-17.1,0-33,4.6-46.8,12.5c-13.8-8-29.8-12.5-46.8-12.5
	c0,17.1,4.6,33,12.5,46.8c-8,13.8-12.5,29.8-12.5,46.8c17.1,0,33-4.6,46.8-12.5C1785.6,617.3,1801.6,621.8,1818.7,621.8z
	 M1818.7,715.5c0-17.1-4.6-33-12.5-46.8c8-13.8,12.5-29.8,12.5-46.8c-17.1,0-33,4.6-46.8,12.5c-13.8-8-29.8-12.5-46.8-12.5
	c0,17.1,4.6,33,12.5,46.8c-8,13.8-12.5,29.8-12.5,46.8c17.1,0,33-4.6,46.8-12.5C1785.6,710.9,1801.6,715.5,1818.7,715.5z
	 M1818.7,809.1c0-17.1-4.6-33-12.5-46.8c8-13.8,12.5-29.8,12.5-46.8c-17.1,0-33,4.6-46.8,12.5c-13.8-8-29.8-12.5-46.8-12.5
	c0,17.1,4.6,33,12.5,46.8c-8,13.8-12.5,29.8-12.5,46.8c17.1,0,33-4.6,46.8-12.5C1785.6,804.6,1801.6,809.1,1818.7,809.1z
	 M1912.3,621.8c0-17.1-4.6-33-12.5-46.8c8-13.8,12.5-29.8,12.5-46.8c-17.1,0-33,4.6-46.8,12.5c-13.8-8-29.8-12.5-46.8-12.5
	c0,17.1,4.6,33,12.5,46.8c-8,13.8-12.5,29.8-12.5,46.8c17.1,0,33-4.6,46.8-12.5C1879.3,617.3,1895.2,621.8,1912.3,621.8z
	 M1912.3,715.5c0-17.1-4.6-33-12.5-46.8c8-13.8,12.5-29.8,12.5-46.8c-17.1,0-33,4.6-46.8,12.5c-13.8-8-29.8-12.5-46.8-12.5
	c0,17.1,4.6,33,12.5,46.8c-8,13.8-12.5,29.8-12.5,46.8c17.1,0,33-4.6,46.8-12.5C1879.3,710.9,1895.2,715.5,1912.3,715.5z
	 M1912.3,809.1c0-17.1-4.6-33-12.5-46.8c8-13.8,12.5-29.8,12.5-46.8c-17.1,0-33,4.6-46.8,12.5c-13.8-8-29.8-12.5-46.8-12.5
	c0,17.1,4.6,33,12.5,46.8c-8,13.8-12.5,29.8-12.5,46.8c17.1,0,33-4.6,46.8-12.5C1879.3,804.6,1895.2,809.1,1912.3,809.1z
	 M2006,621.8c0-17.1-4.6-33-12.5-46.8c8-13.8,12.5-29.8,12.5-46.8c-17.1,0-33,4.6-46.8,12.5c-13.8-8-29.8-12.5-46.8-12.5
	c0,17.1,4.6,33,12.5,46.8c-8,13.8-12.5,29.8-12.5,46.8c17.1,0,33-4.6,46.8-12.5C1972.9,617.3,1988.9,621.8,2006,621.8z M2006,715.5
	c0-17.1-4.6-33-12.5-46.8c8-13.8,12.5-29.8,12.5-46.8c-17.1,0-33,4.6-46.8,12.5c-13.8-8-29.8-12.5-46.8-12.5
	c0,17.1,4.6,33,12.5,46.8c-8,13.8-12.5,29.8-12.5,46.8c17.1,0,33-4.6,46.8-12.5C1972.9,710.9,1988.9,715.5,2006,715.5z M2006,809.1
	c0-17.1-4.6-33-12.5-46.8c8-13.8,12.5-29.8,12.5-46.8c-17.1,0-33,4.6-46.8,12.5c-13.8-8-29.8-12.5-46.8-12.5
	c0,17.1,4.6,33,12.5,46.8c-8,13.8-12.5,29.8-12.5,46.8c17.1,0,33-4.6,46.8-12.5C1972.9,804.6,1988.9,809.1,2006,809.1z
	 M2099.6,621.8c0-17.1-4.6-33-12.5-46.8c8-13.8,12.5-29.8,12.5-46.8c-17.1,0-33,4.6-46.8,12.5c-13.8-8-29.8-12.5-46.8-12.5
	c0,17.1,4.6,33,12.5,46.8c-8,13.8-12.5,29.8-12.5,46.8c17.1,0,33-4.6,46.8-12.5C2066.6,617.3,2082.5,621.8,2099.6,621.8z
	 M2099.6,715.5c0-17.1-4.6-33-12.5-46.8c8-13.8,12.5-29.8,12.5-46.8c-17.1,0-33,4.6-46.8,12.5c-13.8-8-29.8-12.5-46.8-12.5
	c0,17.1,4.6,33,12.5,46.8c-8,13.8-12.5,29.8-12.5,46.8c17.1,0,33-4.6,46.8-12.5C2066.6,710.9,2082.5,715.5,2099.6,715.5z
	 M2099.6,809.1c0-17.1-4.6-33-12.5-46.8c8-13.8,12.5-29.8,12.5-46.8c-17.1,0-33,4.6-46.8,12.5c-13.8-8-29.8-12.5-46.8-12.5
	c0,17.1,4.6,33,12.5,46.8c-8,13.8-12.5,29.8-12.5,46.8c17.1,0,33-4.6,46.8-12.5C2066.6,804.6,2082.5,809.1,2099.6,809.1z
	 M1818.7,902.3c0-17.1-4.6-33-12.5-46.8c8-13.8,12.5-29.8,12.5-46.8c-17.1,0-33,4.6-46.8,12.5c-13.8-8-29.8-12.5-46.8-12.5
	c0,17.1,4.6,33,12.5,46.8c-8,13.8-12.5,29.8-12.5,46.8c17.1,0,33-4.6,46.8-12.5C1785.6,897.7,1801.6,902.3,1818.7,902.3z
	 M1818.7,995.9c0-17.1-4.6-33-12.5-46.8c8-13.8,12.5-29.8,12.5-46.8c-17.1,0-33,4.6-46.8,12.5c-13.8-8-29.8-12.5-46.8-12.5
	c0,17.1,4.6,33,12.5,46.8c-8,13.8-12.5,29.8-12.5,46.8c17.1,0,33-4.6,46.8-12.5C1785.6,991.4,1801.6,995.9,1818.7,995.9z
	 M1912.3,902.3c0-17.1-4.6-33-12.5-46.8c8-13.8,12.5-29.8,12.5-46.8c-17.1,0-33,4.6-46.8,12.5c-13.8-8-29.8-12.5-46.8-12.5
	c0,17.1,4.6,33,12.5,46.8c-8,13.8-12.5,29.8-12.5,46.8c17.1,0,33-4.6,46.8-12.5C1879.3,897.7,1895.2,902.3,1912.3,902.3z
	 M1912.3,995.9c0-17.1-4.6-33-12.5-46.8c8-13.8,12.5-29.8,12.5-46.8c-17.1,0-33,4.6-46.8,12.5c-13.8-8-29.8-12.5-46.8-12.5
	c0,17.1,4.6,33,12.5,46.8c-8,13.8-12.5,29.8-12.5,46.8c17.1,0,33-4.6,46.8-12.5C1879.3,991.4,1895.2,995.9,1912.3,995.9z
	 M2006,902.3c0-17.1-4.6-33-12.5-46.8c8-13.8,12.5-29.8,12.5-46.8c-17.1,0-33,4.6-46.8,12.5c-13.8-8-29.8-12.5-46.8-12.5
	c0,17.1,4.6,33,12.5,46.8c-8,13.8-12.5,29.8-12.5,46.8c17.1,0,33-4.6,46.8-12.5C1972.9,897.7,1988.9,902.3,2006,902.3z M2006,995.9
	c0-17.1-4.6-33-12.5-46.8c8-13.8,12.5-29.8,12.5-46.8c-17.1,0-33,4.6-46.8,12.5c-13.8-8-29.8-12.5-46.8-12.5
	c0,17.1,4.6,33,12.5,46.8c-8,13.8-12.5,29.8-12.5,46.8c17.1,0,33-4.6,46.8-12.5C1972.9,991.4,1988.9,995.9,2006,995.9z
	 M2099.6,902.3c0-17.1-4.6-33-12.5-46.8c8-13.8,12.5-29.8,12.5-46.8c-17.1,0-33,4.6-46.8,12.5c-13.8-8-29.8-12.5-46.8-12.5
	c0,17.1,4.6,33,12.5,46.8c-8,13.8-12.5,29.8-12.5,46.8c17.1,0,33-4.6,46.8-12.5C2066.6,897.7,2082.5,902.3,2099.6,902.3z
	 M2099.6,995.9c0-17.1-4.6-33-12.5-46.8c8-13.8,12.5-29.8,12.5-46.8c-17.1,0-33,4.6-46.8,12.5c-13.8-8-29.8-12.5-46.8-12.5
	c0,17.1,4.6,33,12.5,46.8c-8,13.8-12.5,29.8-12.5,46.8c17.1,0,33-4.6,46.8-12.5C2066.6,991.4,2082.5,995.9,2099.6,995.9z
	 M1818.7,1089.8c0-17.1-4.6-33-12.5-46.8c8-13.8,12.5-29.8,12.5-46.8c-17.1,0-33,4.6-46.8,12.5c-13.8-8-29.8-12.5-46.8-12.5
	c0,17.1,4.6,33,12.5,46.8c-8,13.8-12.5,29.8-12.5,46.8c17.1,0,33-4.6,46.8-12.5C1785.6,1085.3,1801.6,1089.8,1818.7,1089.8z
	 M1818.7,1183.5c0-17.1-4.6-33-12.5-46.8c8-13.8,12.5-29.8,12.5-46.8c-17.1,0-33,4.6-46.8,12.5c-13.8-8-29.8-12.5-46.8-12.5
	c0,17.1,4.6,33,12.5,46.8c-8,13.8-12.5,29.8-12.5,46.8c17.1,0,33-4.6,46.8-12.5C1785.6,1178.9,1801.6,1183.5,1818.7,1183.5z
	 M1818.7,1277.1c0-17.1-4.6-33-12.5-46.8c8-13.8,12.5-29.8,12.5-46.8c-17.1,0-33,4.6-46.8,12.5c-13.8-8-29.8-12.5-46.8-12.5
	c0,17.1,4.6,33,12.5,46.8c-8,13.8-12.5,29.8-12.5,46.8c17.1,0,33-4.6,46.8-12.5C1785.6,1272.6,1801.6,1277.1,1818.7,1277.1z
	 M1912.3,1089.8c0-17.1-4.6-33-12.5-46.8c8-13.8,12.5-29.8,12.5-46.8c-17.1,0-33,4.6-46.8,12.5c-13.8-8-29.8-12.5-46.8-12.5
	c0,17.1,4.6,33,12.5,46.8c-8,13.8-12.5,29.8-12.5,46.8c17.1,0,33-4.6,46.8-12.5C1879.3,1085.3,1895.2,1089.8,1912.3,1089.8z
	 M1912.3,1183.5c0-17.1-4.6-33-12.5-46.8c8-13.8,12.5-29.8,12.5-46.8c-17.1,0-33,4.6-46.8,12.5c-13.8-8-29.8-12.5-46.8-12.5
	c0,17.1,4.6,33,12.5,46.8c-8,13.8-12.5,29.8-12.5,46.8c17.1,0,33-4.6,46.8-12.5C1879.3,1178.9,1895.2,1183.5,1912.3,1183.5z
	 M1912.3,1277.1c0-17.1-4.6-33-12.5-46.8c8-13.8,12.5-29.8,12.5-46.8c-17.1,0-33,4.6-46.8,12.5c-13.8-8-29.8-12.5-46.8-12.5
	c0,17.1,4.6,33,12.5,46.8c-8,13.8-12.5,29.8-12.5,46.8c17.1,0,33-4.6,46.8-12.5C1879.3,1272.6,1895.2,1277.1,1912.3,1277.1z
	 M2006,1089.8c0-17.1-4.6-33-12.5-46.8c8-13.8,12.5-29.8,12.5-46.8c-17.1,0-33,4.6-46.8,12.5c-13.8-8-29.8-12.5-46.8-12.5
	c0,17.1,4.6,33,12.5,46.8c-8,13.8-12.5,29.8-12.5,46.8c17.1,0,33-4.6,46.8-12.5C1972.9,1085.3,1988.9,1089.8,2006,1089.8z
	 M2006,1183.5c0-17.1-4.6-33-12.5-46.8c8-13.8,12.5-29.8,12.5-46.8c-17.1,0-33,4.6-46.8,12.5c-13.8-8-29.8-12.5-46.8-12.5
	c0,17.1,4.6,33,12.5,46.8c-8,13.8-12.5,29.8-12.5,46.8c17.1,0,33-4.6,46.8-12.5C1972.9,1178.9,1988.9,1183.5,2006,1183.5z
	 M2006,1277.1c0-17.1-4.6-33-12.5-46.8c8-13.8,12.5-29.8,12.5-46.8c-17.1,0-33,4.6-46.8,12.5c-13.8-8-29.8-12.5-46.8-12.5
	c0,17.1,4.6,33,12.5,46.8c-8,13.8-12.5,29.8-12.5,46.8c17.1,0,33-4.6,46.8-12.5C1972.9,1272.6,1988.9,1277.1,2006,1277.1z
	 M2099.6,1089.8c0-17.1-4.6-33-12.5-46.8c8-13.8,12.5-29.8,12.5-46.8c-17.1,0-33,4.6-46.8,12.5c-13.8-8-29.8-12.5-46.8-12.5
	c0,17.1,4.6,33,12.5,46.8c-8,13.8-12.5,29.8-12.5,46.8c17.1,0,33-4.6,46.8-12.5C2066.6,1085.3,2082.5,1089.8,2099.6,1089.8z
	 M2099.6,1183.5c0-17.1-4.6-33-12.5-46.8c8-13.8,12.5-29.8,12.5-46.8c-17.1,0-33,4.6-46.8,12.5c-13.8-8-29.8-12.5-46.8-12.5
	c0,17.1,4.6,33,12.5,46.8c-8,13.8-12.5,29.8-12.5,46.8c17.1,0,33-4.6,46.8-12.5C2066.6,1178.9,2082.5,1183.5,2099.6,1183.5z
	 M2099.6,1277.1c0-17.1-4.6-33-12.5-46.8c8-13.8,12.5-29.8,12.5-46.8c-17.1,0-33,4.6-46.8,12.5c-13.8-8-29.8-12.5-46.8-12.5
	c0,17.1,4.6,33,12.5,46.8c-8,13.8-12.5,29.8-12.5,46.8c17.1,0,33-4.6,46.8-12.5C2066.6,1272.6,2082.5,1277.1,2099.6,1277.1z"/>
</svg>
