<?xml version="1.0" encoding="utf-8"?>
<!-- Generator: Adobe Illustrator 23.0.3, SVG Export Plug-In . SVG Version: 6.00 Build 0)  -->
<svg version="1.1" id="Layer_1" xmlns="http://www.w3.org/2000/svg" xmlns:xlink="http://www.w3.org/1999/xlink" x="0px" y="0px"
	 viewBox="0 0 1920 1080" style="enable-background:new 0 0 1920 1080;" xml:space="preserve">
<path d="M-741.8,618l-2.1-2.1L962-1090l2.1,2.1L-741.8,618z M976.4-1074.5l-2.1-2.1L-731.7,629.3l2.1,2.1L976.4-1074.5z
	 M989.8-1062.2l-2.1-2.1L-718.3,641.6l2.1,2.1L989.8-1062.2z M1002-1048.9l-2.1-2.1L-706,655l2.1,2.1L1002-1048.9z M1015.4-1036.6
	l-2.1-2.1L-692.7,667.2l2.1,2.1L1015.4-1036.6z M1027.7-1023.2l-2.1-2.1L-680.4,680.6l2.1,2.1L1027.7-1023.2z M1041.1-1010.9
	l-2.1-2.1L-667,692.9l2.1,2.1L1041.1-1010.9z M1053.3-997.6l-2.1-2.1L-654.7,706.3l2.1,2.1L1053.3-997.6z M1066.7-985.3l-2.1-2.1
	L-641.3,718.5l2.1,2.1L1066.7-985.3z M1079-971.9l-2.1-2.1L-629.1,731.9l2.1,2.1L1079-971.9z M1092.4-959.6l-2.1-2.1L-615.7,744.2
	l2.1,2.1L1092.4-959.6z M1104.7-946.2l-2.1-2.1L-603.4,757.6l2.1,2.1L1104.7-946.2z M1118-934l-2.1-2.1L-590,769.9l2.1,2.1L1118-934
	z M1130.3-920.6l-2.1-2.1L-577.8,783.2l2.1,2.1L1130.3-920.6z M1143.7-908.3l-2.1-2.1L-564.4,795.5l2.1,2.1L1143.7-908.3z
	 M1156-894.9l-2.1-2.1L-552.1,808.9l2.1,2.1L1156-894.9z M1169.3-882.7l-2.1-2.1L-538.7,821.2l2.1,2.1L1169.3-882.7z M1181.6-869.3
	l-2.1-2.1L-526.4,834.6l2.1,2.1L1181.6-869.3z M1195-857l-2.1-2.1L-513.1,846.8l2.1,2.1L1195-857z M1207.3-843.6l-2.1-2.1
	L-500.8,860.2l2.1,2.1L1207.3-843.6z M1220.7-831.3l-2.1-2.1L-487.4,872.5l2.1,2.1L1220.7-831.3z M1232.9-818l-2.1-2.1L-475.1,885.9
	l2.1,2.1L1232.9-818z M1246.3-805.7l-2.1-2.1L-461.8,898.1l2.1,2.1L1246.3-805.7z M1258.6-792.3l-2.1-2.1L-449.5,911.5l2.1,2.1
	L1258.6-792.3z M1272-780l-2.1-2.1L-436.1,923.8l2.1,2.1L1272-780z M1284.2-766.6l-2.1-2.1L-423.8,937.2l2.1,2.1L1284.2-766.6z
	 M1297.6-754.4l-2.1-2.1L-410.4,949.5l2.1,2.1L1297.6-754.4z M1309.9-741l-2.1-2.1L-398.2,962.8l2.1,2.1L1309.9-741z M1323.3-728.7
	l-2.1-2.1L-384.8,975.1l2.1,2.1L1323.3-728.7z M1335.6-715.3l-2.1-2.1L-372.5,988.5l2.1,2.1L1335.6-715.3z M1348.9-703.1l-2.1-2.1
	L-359.1,1000.8l2.1,2.1L1348.9-703.1z M1361.2-689.7l-2.1-2.1L-346.9,1014.1l2.1,2.1L1361.2-689.7z M1374.6-677.4l-2.1-2.1
	L-333.5,1026.4l2.1,2.1L1374.6-677.4z M1386.9-664l-2.1-2.1L-321.2,1039.8l2.1,2.1L1386.9-664z M1400.3-651.7l-2.1-2.1
	L-307.8,1052.1l2.1,2.1L1400.3-651.7z M1412.5-638.4l-2.1-2.1L-295.5,1065.5l2.1,2.1L1412.5-638.4z M1425.9-626.1l-2.1-2.1
	L-282.2,1077.7l2.1,2.1L1425.9-626.1z M1438.2-612.7l-2.1-2.1L-269.9,1091.1l2.1,2.1L1438.2-612.7z M1451.6-600.4l-2.1-2.1
	L-256.5,1103.4l2.1,2.1L1451.6-600.4z M1463.8-587.1l-2.1-2.1L-244.2,1116.8l2.1,2.1L1463.8-587.1z M1477.2-574.8l-2.1-2.1
	L-230.8,1129l2.1,2.1L1477.2-574.8z M1489.5-561.4l-2.1-2.1L-218.6,1142.4l2.1,2.1L1489.5-561.4z M1502.9-549.1l-2.1-2.1
	L-205.2,1154.7l2.1,2.1L1502.9-549.1z M1515.2-535.7l-2.1-2.1L-192.9,1168.1l2.1,2.1L1515.2-535.7z M1528.5-523.5l-2.1-2.1
	L-179.5,1180.4l2.1,2.1L1528.5-523.5z M1540.8-510.1l-2.1-2.1L-167.3,1193.7l2.1,2.1L1540.8-510.1z M1554.2-497.8l-2.1-2.1
	L-153.9,1206l2.1,2.1L1554.2-497.8z M1566.5-484.4l-2.1-2.1L-141.6,1219.4l2.1,2.1L1566.5-484.4z M1579.8-472.2l-2.1-2.1
	L-128.2,1231.7l2.1,2.1L1579.8-472.2z M1592.1-458.8l-2.1-2.1L-115.9,1245.1l2.1,2.1L1592.1-458.8z M1605.5-446.5l-2.1-2.1
	L-102.6,1257.3l2.1,2.1L1605.5-446.5z M1617.8-433.1l-2.1-2.1L-90.3,1270.7l2.1,2.1L1617.8-433.1z M1631.2-420.8l-2.1-2.1
	L-76.9,1283l2.1,2.1L1631.2-420.8z M1643.4-407.5l-2.1-2.1L-64.6,1296.4l2.1,2.1L1643.4-407.5z M1656.8-395.2l-2.1-2.1L-51.2,1308.6
	l2.1,2.1L1656.8-395.2z M1669.1-381.8l-2.1-2.1L-39,1322l2.1,2.1L1669.1-381.8z M1682.5-369.5l-2.1-2.1L-25.6,1334.3l2.1,2.1
	L1682.5-369.5z M1694.7-356.1l-2.1-2.1L-13.3,1347.7l2.1,2.1L1694.7-356.1z M1708.1-343.9l-2.1-2.1L0.1,1360l2.1,2.1L1708.1-343.9z
	 M1720.4-330.5l-2.1-2.1L12.3,1373.3l2.1,2.1L1720.4-330.5z M1733.8-318.2l-2.1-2.1L25.7,1385.6l2.1,2.1L1733.8-318.2z
	 M1746.1-304.8l-2.1-2.1L38,1399l2.1,2.1L1746.1-304.8z M1759.4-292.6l-2.1-2.1L51.4,1411.3l2.1,2.1L1759.4-292.6z M1771.7-279.2
	l-2.1-2.1L63.7,1424.7l2.1,2.1L1771.7-279.2z M1785.1-266.9l-2.1-2.1L77,1436.9l2.1,2.1L1785.1-266.9z M1797.4-253.5l-2.1-2.1
	L89.3,1450.3l2.1,2.1L1797.4-253.5z M1810.8-241.2l-2.1-2.1L102.7,1462.6l2.1,2.1L1810.8-241.2z M1823-227.9l-2.1-2.1L115,1476
	l2.1,2.1L1823-227.9z M1836.4-215.6l-2.1-2.1L128.3,1488.2l2.1,2.1L1836.4-215.6z M1848.7-202.2l-2.1-2.1L140.6,1501.6l2.1,2.1
	L1848.7-202.2z M1862.1-189.9l-2.1-2.1L154,1513.9l2.1,2.1L1862.1-189.9z M1874.3-176.6l-2.1-2.1L166.3,1527.3l2.1,2.1L1874.3-176.6
	z M1887.7-164.3l-2.1-2.1L179.7,1539.6l2.1,2.1L1887.7-164.3z M1900-150.9l-2.1-2.1L191.9,1552.9l2.1,2.1L1900-150.9z M1913.4-138.6
	l-2.1-2.1L205.3,1565.2l2.1,2.1L1913.4-138.6z M1925.7-125.2l-2.1-2.1L217.6,1578.6l2.1,2.1L1925.7-125.2z M1939-113l-2.1-2.1
	L231,1590.9l2.1,2.1L1939-113z M1951.3-99.6l-2.1-2.1L243.2,1604.2l2.1,2.1L1951.3-99.6z M1964.7-87.3l-2.1-2.1L256.6,1616.5
	l2.1,2.1L1964.7-87.3z M1977-73.9l-2.1-2.1L268.9,1629.9l2.1,2.1L1977-73.9z M1990.3-61.6l-2.1-2.1L282.3,1642.2l2.1,2.1
	L1990.3-61.6z M2002.6-48.3l-2.1-2.1L294.6,1655.6l2.1,2.1L2002.6-48.3z M2016-36l-2.1-2.1L307.9,1667.8l2.1,2.1L2016-36z
	 M2028.3-22.6l-2.1-2.1L320.2,1681.2l2.1,2.1L2028.3-22.6z M2041.7-10.3l-2.1-2.1L333.6,1693.5l2.1,2.1L2041.7-10.3z M2053.9,3
	l-2.1-2.1L345.9,1706.9l2.1,2.1L2053.9,3z M2067.3,15.3l-2.1-2.1L359.3,1719.1l2.1,2.1L2067.3,15.3z M2079.6,28.7l-2.1-2.1
	L371.5,1732.5l2.1,2.1L2079.6,28.7z M2093,41l-2.1-2.1L384.9,1744.8l2.1,2.1L2093,41z M2105.2,54.4l-2.1-2.1L397.2,1758.2l2.1,2.1
	L2105.2,54.4z M2118.6,66.6l-2.1-2.1L410.6,1770.5l2.1,2.1L2118.6,66.6z M2130.9,80l-2.1-2.1L422.8,1783.8l2.1,2.1L2130.9,80z
	 M2144.3,92.3l-2.1-2.1L436.2,1796.1l2.1,2.1L2144.3,92.3z M2156.6,105.7l-2.1-2.1L448.5,1809.5l2.1,2.1L2156.6,105.7z
	 M2169.9,117.9l-2.1-2.1L461.9,1821.8l2.1,2.1L2169.9,117.9z M2182.2,131.3l-2.1-2.1L474.2,1835.2l2.1,2.1L2182.2,131.3z
	 M2195.6,143.6l-2.1-2.1L487.5,1847.4l2.1,2.1L2195.6,143.6z M2207.9,157l-2.1-2.1L499.8,1860.8l2.1,2.1L2207.9,157z M2221.3,169.3
	l-2.1-2.1L513.2,1873.1l2.1,2.1L2221.3,169.3z M2233.5,182.6l-2.1-2.1L525.5,1886.5l2.1,2.1L2233.5,182.6z M2246.9,194.9l-2.1-2.1
	L538.8,1898.7l2.1,2.1L2246.9,194.9z M2259.2,208.3l-2.1-2.1L551.1,1912.1l2.1,2.1L2259.2,208.3z M2272.6,220.6l-2.1-2.1
	L564.5,1924.4l2.1,2.1L2272.6,220.6z M2284.8,234l-2.1-2.1L576.8,1937.8l2.1,2.1L2284.8,234z M2298.2,246.2l-2.1-2.1L590.2,1950.1
	l2.1,2.1L2298.2,246.2z M2310.5,259.6l-2.1-2.1L602.4,1963.4l2.1,2.1L2310.5,259.6z M2323.9,271.9l-2.1-2.1L615.8,1975.7l2.1,2.1
	L2323.9,271.9z M2336.2,285.3l-2.1-2.1L628.1,1989.1l2.1,2.1L2336.2,285.3z M2349.5,297.5l-2.1-2.1L641.5,2001.4l2.1,2.1
	L2349.5,297.5z M2361.8,310.9l-2.1-2.1L653.7,2014.7l2.1,2.1L2361.8,310.9z M2375.2,323.2l-2.1-2.1L667.1,2027l2.1,2.1L2375.2,323.2
	z M2387.5,336.6l-2.1-2.1L679.4,2040.4l2.1,2.1L2387.5,336.6z M2400.9,348.9l-2.1-2.1L692.8,2052.7l2.1,2.1L2400.9,348.9z
	 M2413.1,362.2l-2.1-2.1L705.1,2066.1l2.1,2.1L2413.1,362.2z M2426.5,374.5l-2.1-2.1L718.4,2078.3l2.1,2.1L2426.5,374.5z
	 M2438.8,387.9l-2.1-2.1L730.7,2091.7l2.1,2.1L2438.8,387.9z M2452.2,400.2l-2.1-2.1L744.1,2104l2.1,2.1L2452.2,400.2z
	 M2464.4,413.5l-2.1-2.1L756.4,2117.4l2.1,2.1L2464.4,413.5z M2477.8,425.8l-2.1-2.1L769.8,2129.6l2.1,2.1L2477.8,425.8z
	 M2490.1,439.2l-2.1-2.1L782,2143l2.1,2.1L2490.1,439.2z M2503.5,451.5l-2.1-2.1L795.4,2155.3l2.1,2.1L2503.5,451.5z M2515.8,464.9
	l-2.1-2.1L807.7,2168.7l2.1,2.1L2515.8,464.9z M2529.1,477.1l-2.1-2.1L821.1,2181l2.1,2.1L2529.1,477.1z M2541.4,490.5l-2.1-2.1
	L833.3,2194.3l2.1,2.1L2541.4,490.5z M2554.8,502.8l-2.1-2.1L846.7,2206.6l2.1,2.1L2554.8,502.8z M2567.1,516.2l-2.1-2.1L859,2220
	l2.1,2.1L2567.1,516.2z M2580.4,528.4l-2.1-2.1L872.4,2232.3l2.1,2.1L2580.4,528.4z M2592.7,541.8l-2.1-2.1L884.7,2245.7l2.1,2.1
	L2592.7,541.8z"/>
</svg>
