<?xml version="1.0" encoding="utf-8"?>
<!-- Generator: Adobe Illustrator 23.0.3, SVG Export Plug-In . SVG Version: 6.00 Build 0)  -->
<svg version="1.1" id="Layer_1" xmlns="http://www.w3.org/2000/svg" xmlns:xlink="http://www.w3.org/1999/xlink" x="0px" y="0px"
	 viewBox="0 0 995 406" style="enable-background:new 0 0 995 406;" xml:space="preserve">
<g>
	<polygon points="166.8,40.7 45,40.7 45,365.1 299.3,365.1 299.3,272.4 166.8,272.4 	"/>
	<path d="M427.7,40.7L302.8,365.1h126.9l23.2-60.4H529l23.2,60.4h126.9L554.2,40.7H427.7z M466,221.5l24.7-62l24.7,62H466z"/>
	<path d="M932.6,218.3c-4.9-13.3-14.1-25-27.7-35.3c-13.6-10.2-33.3-18.9-59.2-25.9l-13.1-3.5c-14.1-4-23.5-7.1-28.2-9.3
		c-4.7-2.2-7.1-5-7.1-8.3c0-8.4,12.9-12.6,38.8-12.6c25.5,0,54.2,6.5,86.1,19.6V51.3c-13.8-4-31.1-7.6-51.9-10.8
		c-20.8-3.2-39.1-4.8-54.9-4.8c-47.7,0-83.4,8.3-107,24.9c-23.7,16.6-35.5,42.1-35.5,76.3c0,18.8,2.6,34.2,7.8,46.3
		c5.2,12.1,13.7,22.5,25.4,31.2c11.7,8.7,28.4,17.1,49.9,25.2c2,0.7,10.4,3.5,25.2,8.6c12.8,4.4,21.5,7.8,26.2,10.3
		c4.7,2.5,7.1,5.8,7.1,9.8c0,4.7-2.9,8.3-8.6,10.8c-5.7,2.5-13.6,3.8-23.7,3.8c-15.4,0-33-2.5-52.6-7.6S692.1,264,676,256.3v91.2
		c14.1,7.1,31.7,12.6,52.9,16.6c21.2,4,43.3,6,66.5,6c47,0,82.9-9.1,107.5-27.4c24.7-18.3,37-43.2,37-74.8
		C939.9,248.1,937.5,231.5,932.6,218.3z"/>
</g>
</svg>
